"","taxon","log.max.pct","direction","lda","p.value"
"1","Glycerol",5.20218255864,"UC",4.46573587455,"0.0480945725864"
"2","Threonine",4.10745087429,"CD",4.30989769986,"0.000416450662472"
"3","Arg_Lys",4.8272787078,"CD",3.90158727295,"0.0434291893169"
"4","Lactate",4.46932186476,"CD",3.98329492041,"0.0106051177612"
"5","Lys",4.48148900618,"CD",3.95114021036,"0.0331410917162"
