"","row","column","cor","p","p.adjust"
"1","Acetate","Adenine",0.300476005181102,0.00641962433306853,0.013586050601975
"2","Acetate","Ala",0.686906731578338,1.4397372183339e-12,1.62141834350461e-11
"3","Adenine","Ala",0.28694282291075,0.00939848758672612,0.019202957358624
"4","Acetate","Arg_and_Lys",0.721169103251038,3.13082892944294e-14,5.19607748640881e-13
"5","Adenine","Arg_and_Lys",0.235906267780784,0.0339909218603709,0.0568116821199839
"6","Ala","Arg_and_Lys",0.918900910319933,0,0
"7","Acetate","Ascorbate",0.0432528140176572,0.706911577540895,0.768664772820329
"8","Adenine","Ascorbate",0.653010768339127,9.21445142409993e-11,7.78292057785584e-10
"9","Ala","Ascorbate",0.151772502801271,0.184682027354272,0.250658820483703
"10","Arg_and_Lys","Ascorbate",0.0727456684881767,0.526773487350195,0.608458753398394
"11","Acetate","Asn",0.506753934014098,1.38447782482842e-06,5.4930505770396e-06
"12","Adenine","Asn",0.146864006910859,0.190758370648231,0.256696185822513
"13","Ala","Asn",0.553763532658222,8.2140984236645e-08,4.34108218367967e-07
"14","Arg_and_Lys","Asn",0.571873077570287,2.45265299181341e-08,1.38934714386556e-07
"15","Ascorbate","Asn",0.0713594601967691,0.534700417763299,0.615360821416157
"16","Acetate","Asp",0.195021824694091,0.0810353077175554,0.122655041761292
"17","Adenine","Asp",0.219751552921146,0.0487020622668202,0.0778245792304255
"18","Ala","Asp",0.287020305848042,0.009378465967953,0.019202957358624
"19","Arg_and_Lys","Asp",0.317368177352141,0.00388994476360138,0.00867898053388422
"20","Ascorbate","Asp",0.169678765867806,0.137501371568735,0.192991539323477
"21","Asn","Asp",0.433480346211085,5.29072379871209e-05,0.000165182333781572
"22","Acetate","B_hydroxybutyrate",0.134827907607384,0.230108517759626,0.304026058380735
"23","Adenine","B_hydroxybutyrate",0.218191675065751,0.0503651133507721,0.0802111064475259
"24","Ala","B_hydroxybutyrate",0.18591741782938,0.0965584944770921,0.143397701374143
"25","Arg_and_Lys","B_hydroxybutyrate",0.247038162500935,0.0261909492227075,0.0453784578107716
"26","Ascorbate","B_hydroxybutyrate",0.187602763209566,0.10002110992182,0.147613057700534
"27","Asn","B_hydroxybutyrate",-0.020912042922668,0.852991122873026,0.881890275669817
"28","Asp","B_hydroxybutyrate",0.169810148914568,0.129628735372272,0.18385124986832
"29","Acetate","Creatine",0.257415511485592,0.0203422753193103,0.0368655027817386
"30","Adenine","Creatine",0.4230782262149,8.31978459243654e-05,0.000253887620143386
"31","Ala","Creatine",0.299795588859831,0.00654660999574874,0.013823868428523
"32","Arg_and_Lys","Creatine",0.272925418999199,0.0136957866548202,0.0266519615456227
"33","Ascorbate","Creatine",0.510341905998613,1.81312653158017e-06,7.0295807330936e-06
"34","Asn","Creatine",0.382415225357754,0.000426429197525779,0.00114602846835053
"35","Asp","Creatine",0.184335049928184,0.09948001045993,0.147043890461084
"36","B_hydroxybutyrate","Creatine",0.147243178767468,0.189603121937156,0.255953410958465
"37","Acetate","Ethanolamine",0.297813714659598,0.00692920009729336,0.0145022639204414
"38","Adenine","Ethanolamine",0.125011998175286,0.266142664186114,0.343949399344349
"39","Ala","Ethanolamine",0.425718368424703,7.42709540033637e-05,0.000227379684424537
"40","Arg_and_Lys","Ethanolamine",0.426464527515782,7.19140422740239e-05,0.000220878844127359
"41","Ascorbate","Ethanolamine",0.0462848796486711,0.687394807363119,0.751216577363109
"42","Asn","Ethanolamine",0.650078494406,5.12874187563739e-11,4.57716020221978e-10
"43","Asp","Ethanolamine",0.245120126951437,0.0274150161728175,0.0471538278172461
"44","B_hydroxybutyrate","Ethanolamine",-0.221522669643073,0.0468688964646657,0.0756620751801601
"45","Creatine","Ethanolamine",0.353108573239608,0.0012231991608056,0.00306123387862989
"46","Acetate","Formate",0.120064416786054,0.298294966766713,0.376751720375581
"47","Adenine","Formate",0.456264542493141,3.04057244049361e-05,9.85062167365394e-05
"48","Ala","Formate",-0.00925493807263575,0.936328630083346,0.944061350244006
"49","Arg_and_Lys","Formate",-0.0436311531364491,0.706337775259317,0.768664772820329
"50","Ascorbate","Formate",0.320729847045734,0.00533527436931447,0.0116026886284402
"51","Asn","Formate",0.0363120048363815,0.753879374886794,0.803298574549302
"52","Asp","Formate",-0.0256875427804221,0.824503057707952,0.860904958710511
"53","B_hydroxybutyrate","Formate",-0.0423196258746967,0.71478074090214,0.774550493577806
"54","Creatine","Formate",0.118326004634281,0.305396417238129,0.384182195089455
"55","Ethanolamine","Formate",-0.0273354058909465,0.813442033082801,0.855017959218145
"56","Acetate","Gln",0.548785446550208,1.13099997811617e-07,5.75229021127899e-07
"57","Adenine","Gln",0.595932448464739,4.37830083299673e-09,2.81760040001014e-08
"58","Ala","Gln",0.668827393569094,8.86024587032352e-12,8.73103395138131e-11
"59","Arg_and_Lys","Gln",0.632998877177431,2.2906876395723e-10,1.77622172707819e-09
"60","Ascorbate","Gln",0.556386698630779,1.22945393421503e-07,6.08933728674041e-07
"61","Asn","Gln",0.384376484731654,0.000395972958190605,0.00107640924841469
"62","Asp","Gln",0.393720039129976,0.000276423856913288,0.000771377488613483
"63","B_hydroxybutyrate","Gln",0.345001272094088,0.00160941838271578,0.00389388693107193
"64","Creatine","Gln",0.516507157174849,7.9755088555622e-07,3.28036146841819e-06
"65","Ethanolamine","Gln",0.201841751653055,0.0707641254497688,0.109183520768464
"66","Formate","Gln",0.264668572748824,0.0200123147731703,0.0363371396841058
"67","Acetate","Glu",0.527688364969323,4.14792617586812e-07,1.81663803813483e-06
"68","Adenine","Glu",0.516621964837674,7.92308521013751e-07,3.28036146841819e-06
"69","Ala","Glu",0.71576771879781,5.92859095149834e-14,9.34741173352904e-13
"70","Arg_and_Lys","Glu",0.676641501419575,4.10382838822443e-12,4.13002303751097e-11
"71","Ascorbate","Glu",0.455642972675761,2.76681282773694e-05,9.07748032364942e-05
"72","Asn","Glu",0.466159893493241,1.15493146710666e-05,3.9729642468469e-05
"73","Asp","Glu",0.374262336232825,0.000577423720644843,0.00152581798807269
"74","B_hydroxybutyrate","Glu",0.216602380005589,0.0521072510802623,0.0827071468488726
"75","Creatine","Glu",0.530406991336269,3.52569302197736e-07,1.58824076132885e-06
"76","Ethanolamine","Glu",0.362775993519717,0.000873481935123488,0.00227915291975202
"77","Formate","Glu",0.162087011128344,0.159019712147294,0.218334757171756
"78","Gln","Glu",0.834218023562845,0,0
"79","Acetate","glucose",-0.26294967868772,0.0184476119236088,0.0338862929703571
"80","Adenine","glucose",-0.0637289089292015,0.574382468769732,0.653083912807892
"81","Ala","glucose",-0.358089813183157,0.00110898072203192,0.00279014830596328
"82","Arg_and_Lys","glucose",-0.325346962098051,0.00323208692209276,0.00740327900314709
"83","Ascorbate","glucose",0.0639398460672534,0.580634181279225,0.658638108423909
"84","Asn","glucose",-0.156671278595046,0.165184837846863,0.225490413568733
"85","Asp","glucose",0.115353733244527,0.308239489837484,0.386937189627032
"86","B_hydroxybutyrate","glucose",0.123857083116006,0.273693124046987,0.352263531086326
"87","Creatine","glucose",-0.0733714286331744,0.517762576974723,0.600985764193973
"88","Ethanolamine","glucose",-0.139092214397211,0.218513616157936,0.290736822623639
"89","Formate","glucose",0.140792792549754,0.225086057621086,0.298223264018974
"90","Gln","glucose",-0.1871571569225,0.0964400863923751,0.143397701374143
"91","Glu","glucose",-0.317892481809927,0.00405942775198609,0.00903580859618551
"92","Acetate","Glucose",0.303569815318885,0.00586923399021266,0.0126188530789572
"93","Adenine","Glucose",0.665753826964626,1.19175780355363e-11,1.13879079006236e-10
"94","Ala","Glucose",0.382574324667571,0.000423880858006154,0.00114242533240405
"95","Arg_and_Lys","Glucose",0.325516524889023,0.00302361511159166,0.00701063699893557
"96","Ascorbate","Glucose",0.741020842001504,8.88178419700125e-15,1.58531468874777e-13
"97","Asn","Glucose",0.304530003323402,0.00570711687525627,0.0123263300547772
"98","Asp","Glucose",0.278395455637724,0.0118500130381147,0.0233544006959511
"99","B_hydroxybutyrate","Glucose",0.137399838764354,0.221258186929248,0.293562755729409
"100","Creatine","Glucose",0.756249329483143,4.44089209850063e-16,9.33574205595909e-15
"101","Ethanolamine","Glucose",0.268638345238712,0.0153117164273846,0.0289975886681082
"102","Formate","Glucose",0.251932430851891,0.0270827569881757,0.0467523505671793
"103","Gln","Glucose",0.663704222711003,1.44948497649011e-11,1.3576364235244e-10
"104","Glu","Glucose",0.68009735954063,2.89768209427166e-12,3.01231567162746e-11
"105","glucose","Glucose",-0.0645212336150797,0.56962367831863,0.649233734565572
"106","Acetate","Glutathione",0.160154258441213,0.155870845574097,0.214634381241769
"107","Adenine","Glutathione",0.576033382456627,2.26311844819804e-08,1.29752124363354e-07
"108","Ala","Glutathione",0.108204734694838,0.339380762479065,0.419130811103389
"109","Arg_and_Lys","Glutathione",0.081718174099606,0.471147879205338,0.555050926187111
"110","Ascorbate","Glutathione",0.638650892525524,3.15358628100171e-10,2.42544115595741e-09
"111","Asn","Glutathione",0.136321010009861,0.227917591197081,0.301552505276138
"112","Asp","Glutathione",-0.011217713922875,0.921330213959278,0.934167612438882
"113","B_hydroxybutyrate","Glutathione",0.250411746986389,0.0250699299516319,0.0437567412070919
"114","Creatine","Glutathione",0.554104029770336,9.71032665386673e-08,5.01965519921198e-07
"115","Ethanolamine","Glutathione",-0.118423057546492,0.295457378122469,0.374166907234078
"116","Formate","Glutathione",0.360789648180249,0.00136602935271068,0.00337405683463266
"117","Gln","Glutathione",0.484299545220123,5.32109957473992e-06,1.92128251820762e-05
"118","Glu","Glutathione",0.344133924440388,0.00177416648784257,0.00424901644936473
"119","glucose","Glutathione",-0.0277399094405765,0.808257599372738,0.852409909706366
"120","Glucose","Glutathione",0.617983191689388,1.01469588287273e-09,7.16345003878807e-09
"121","Acetate","Glycerol",0.0188931739759829,0.867046983453155,0.890608617501011
"122","Adenine","Glycerol",0.0477166474723832,0.672283539234928,0.740372791753483
"123","Ala","Glycerol",0.0222077922431951,0.843993576308299,0.874499368223057
"124","Arg_and_Lys","Glycerol",0.00967803865427095,0.93166474030561,0.941618423428534
"125","Ascorbate","Glycerol",0.0461150314894909,0.688482846272532,0.751216577363109
"126","Asn","Glycerol",0.204369506120038,0.0672342547400646,0.104611192408061
"127","Asp","Glycerol",-0.296766835234056,0.00713913847132197,0.0148758259776885
"128","B_hydroxybutyrate","Glycerol",-0.431398016374388,5.79942247531662e-05,0.000180468870448997
"129","Creatine","Glycerol",0.0709526606243297,0.529059233873693,0.610353701517699
"130","Ethanolamine","Glycerol",0.295077154175567,0.00748980727620907,0.0155380650949425
"131","Formate","Glycerol",0.335051004340654,0.00289591852750259,0.00674763282516614
"132","Gln","Glycerol",0.045293629419561,0.688042529157136,0.751216577363109
"133","Glu","Glycerol",0.182655984193181,0.102655227341696,0.150561000101154
"134","glucose","Glycerol",-0.268104857855757,0.016196414718179,0.0302205292374701
"135","Glucose","Glycerol",0.106930916730454,0.342037056524539,0.421860567760384
"136","Glutathione","Glycerol",0.0737439269547508,0.515633541739841,0.599249791751707
"137","Acetate","Glycogen",-0.0319360670154035,0.779937235388431,0.826226903334217
"138","Adenine","Glycogen",0.33652254360269,0.00242640250569037,0.00568162566926508
"139","Ala","Glycogen",-0.13031358045404,0.252341847780647,0.330173427386573
"140","Arg_and_Lys","Glycogen",-0.10130311202609,0.37435881834452,0.454612891083332
"141","Ascorbate","Glycogen",0.372927006141356,0.000907380801394853,0.00235173215923159
"142","Asn","Glycogen",-0.169665466139996,0.134955177971544,0.19026467714021
"143","Asp","Glycogen",-0.131870138446122,0.246671208771441,0.324208855845056
"144","B_hydroxybutyrate","Glycogen",0.202275231598126,0.0738188882075832,0.113180985809358
"145","Creatine","Glycogen",0.0690792677040174,0.545227671229453,0.625194396343106
"146","Ethanolamine","Glycogen",-0.296952693061722,0.00787140214824311,0.0162583983236637
"147","Formate","Glycogen",0.384786279439185,0.000599038487160808,0.00157852481574965
"148","Gln","Glycogen",0.18582896659386,0.101073114501534,0.148701658349068
"149","Glu","Glycogen",-0.0498039982537045,0.662921972552837,0.730913969737743
"150","glucose","Glycogen",0.48035663497403,8.55708358304952e-06,3.02052278715106e-05
"151","Glucose","Glycogen",0.118039451983611,0.300173106688003,0.378618345235801
"152","Glutathione","Glycogen",0.44969490047453,3.62140609895256e-05,0.000116130514224038
"153","Glycerol","Glycogen",-0.124182927014512,0.275538685624356,0.354157060598696
"154","Acetate","Ile",0.591270469265025,6.181673395389e-09,3.84727831055131e-08
"155","Adenine","Ile",-0.0516072204946484,0.647275064200012,0.71868804076668
"156","Ala","Ile",0.793398043927062,0,0
"157","Arg_and_Lys","Ile",0.843264578498464,0,0
"158","Ascorbate","Ile",-0.142949281367664,0.211835474170674,0.282646485987952
"159","Asn","Ile",0.595019484693192,4.68629135497167e-09,2.99542677148865e-08
"160","Asp","Ile",0.251991801485369,0.0232420274479055,0.0412513282658885
"161","B_hydroxybutyrate","Ile",0.0659088729756074,0.558819146371635,0.638457623753099
"162","Creatine","Ile",0.159466525192996,0.155023565317796,0.213778852464483
"163","Ethanolamine","Ile",0.54755183174902,1.22330960916628e-07,6.08933728674041e-07
"164","Formate","Ile",-0.146229887487658,0.204438168346299,0.273935562684984
"165","Gln","Ile",0.392078369399963,0.000294669971496742,0.000819875861870346
"166","Glu","Ile",0.468766591602957,1.01593313925896e-05,3.52041300270688e-05
"167","glucose","Ile",-0.241632528677134,0.030825409766321,0.0523533889388503
"168","Glucose","Ile",0.0947352967989391,0.400202359516925,0.478623807968408
"169","Glutathione","Ile",-0.201195569374426,0.0735224550650693,0.112909484564214
"170","Glycerol","Ile",0.0455764529195505,0.686196058098358,0.751216577363109
"171","Glycogen","Ile",-0.290348496184783,0.00943941049776997,0.0192450050234707
"172","Acetate","Inosine",-0.0255942055491708,0.822837468708014,0.860706159010799
"173","Adenine","Inosine",0.519579798330506,9.26002722501096e-07,3.77585592881912e-06
"174","Ala","Inosine",-0.0693934690763606,0.543396513759405,0.623850851961647
"175","Arg_and_Lys","Inosine",-0.0803483934596768,0.481489819663801,0.565825303604914
"176","Ascorbate","Inosine",0.604187744895848,7.52990203523041e-09,4.59566924214707e-08
"177","Asn","Inosine",0.00332955943573532,0.976767175622351,0.979874600359219
"178","Asp","Inosine",-0.0947740663263482,0.40607760792934,0.484425494452908
"179","B_hydroxybutyrate","Inosine",0.0641495423860751,0.57434462877182,0.653083912807892
"180","Creatine","Inosine",0.343276587204089,0.00195377242351302,0.00465558869683456
"181","Ethanolamine","Inosine",-0.169305020733943,0.135798403717664,0.190884531823046
"182","Formate","Inosine",0.538741143654553,4.31872584361059e-07,1.86553180276512e-06
"183","Gln","Inosine",0.248531694331026,0.0272048586364275,0.0468775888343542
"184","Glu","Inosine",0.0729055707241071,0.523134694159816,0.605734909027155
"185","glucose","Inosine",0.317731420608082,0.00458724665098575,0.0100685274520476
"186","Glucose","Inosine",0.447312521691314,3.581161687638e-05,0.000115230576751889
"187","Glutathione","Inosine",0.701700360488353,8.29336599394992e-13,1.00560122816688e-11
"188","Glycerol","Inosine",0.0402607362231637,0.724625012856988,0.78163655890845
"189","Glycogen","Inosine",0.711614465882861,2.8244073746464e-13,3.92924908296396e-12
"190","Ile","Inosine",-0.269640422811008,0.0162563677067364,0.0302212492379785
"191","Acetate","Inosine.1",0.0355610263712678,0.752629184226523,0.803298574549302
"192","Adenine","Inosine.1",0.591549932199298,6.05610162018877e-09,3.79408750509839e-08
"193","Ala","Inosine.1",0.041659373471238,0.7119285711876,0.773231261014316
"194","Arg_and_Lys","Inosine.1",-0.0326134214795794,0.772554178022148,0.819323152924834
"195","Ascorbate","Inosine.1",0.723266225128901,7.50510764646606e-14,1.16390685796015e-12
"196","Asn","Inosine.1",0.0186285251078862,0.868892692137493,0.891510289329792
"197","Asp","Inosine.1",0.0193952740274161,0.863547208897177,0.890535237285966
"198","B_hydroxybutyrate","Inosine.1",0.282466672433155,0.0106204796748757,0.0214221189177663
"199","Creatine","Inosine.1",0.487027616702734,4.01499674662631e-06,1.48366676652675e-05
"200","Ethanolamine","Inosine.1",-0.239131416698661,0.0315528381192633,0.0533971106633687
"201","Formate","Inosine.1",0.410813226690964,0.00020630804261268,0.000584333557819146
"202","Gln","Inosine.1",0.414456225960004,0.000119750625781734,0.00035401278746725
"203","Glu","Inosine.1",0.281529168995066,0.0108932900158638,0.0217406167827155
"204","glucose","Inosine.1",0.139573590267098,0.216908369325251,0.289007489269983
"205","Glucose","Inosine.1",0.615251711448179,9.86873249786413e-10,7.07259162346929e-09
"206","Glutathione","Inosine.1",0.815804587652883,0,0
"207","Glycerol","Inosine.1",-0.0258140283358978,0.819060627179083,0.859014804114648
"208","Glycogen","Inosine.1",0.537487295766783,3.2642881286904e-07,1.48462335083707e-06
"209","Ile","Inosine.1",-0.298319707379934,0.00682969374023834,0.0143256990648902
"210","Inosine","Inosine.1",0.872841693994453,0,0
"211","Acetate","Inosine.2",0.0713479087372721,0.526761024617469,0.608458753398394
"212","Adenine","Inosine.2",0.716516760961034,5.41788836017076e-14,8.83676273917507e-13
"213","Ala","Inosine.2",0.0400727261487363,0.722446004073047,0.780175707594866
"214","Arg_and_Lys","Inosine.2",-0.0344597838105736,0.760055160910968,0.80878760654868
"215","Ascorbate","Inosine.2",0.734209711104521,2.04281036531029e-14,3.45089036711345e-13
"216","Asn","Inosine.2",-0.000943002028801754,0.993333667596366,0.993333667596366
"217","Asp","Inosine.2",0.0176731317920851,0.875561539634091,0.896408242958712
"218","B_hydroxybutyrate","Inosine.2",0.287367941257559,0.0092890954721101,0.019061788105458
"219","Creatine","Inosine.2",0.491561598990486,3.1618458533611e-06,1.17760085719669e-05
"220","Ethanolamine","Inosine.2",-0.242705345649179,0.0290246243389625,0.0497779767958582
"221","Formate","Inosine.2",0.486483466657895,7.26202175371782e-06,2.57298598465058e-05
"222","Gln","Inosine.2",0.467619725178588,1.07503731676672e-05,3.71162518854497e-05
"223","Glu","Inosine.2",0.321028858844241,0.00347658591912214,0.00788693112587422
"224","glucose","Inosine.2",0.054742900011965,0.629599127808597,0.700706794008156
"225","Glucose","Inosine.2",0.626002213977384,4.1193004562956e-10,3.11748658532451e-09
"226","Glutathione","Inosine.2",0.827009857412317,0,0
"227","Glycerol","Inosine.2",-0.0017446488967175,0.987666953466214,0.988712103681522
"228","Glycogen","Inosine.2",0.544115052012565,2.18503620086352e-07,1.03871570151603e-06
"229","Ile","Inosine.2",-0.31555738749635,0.00411016569705591,0.00912726936482369
"230","Inosine","Inosine.2",0.802735125088195,0,0
"231","Inosine.1","Inosine.2",0.916100182930961,0,0
"232","Acetate","Inositol",0.259728966950481,0.0192029846299646,0.0350695433589701
"233","Adenine","Inositol",0.633729892109228,2.15261808378386e-10,1.69698058938295e-09
"234","Ala","Inositol",0.282000463382004,0.010755390814488,0.0216021225276127
"235","Arg_and_Lys","Inositol",0.168406728495589,0.132875400695925,0.187612132922903
"236","Ascorbate","Inositol",0.706994125732611,4.69402294811516e-13,6.3436367270242e-12
"237","Asn","Inositol",0.130171100113384,0.246755154554377,0.324208855845056
"238","Asp","Inositol",0.146944399073569,0.19051301082191,0.256696185822513
"239","B_hydroxybutyrate","Inositol",0.214040081403392,0.0550198415064544,0.0867479501085098
"240","Creatine","Inositol",0.637617657775438,1.54231738491717e-10,1.24703610780482e-09
"241","Ethanolamine","Inositol",0.101088576745596,0.369207135639758,0.449510875566552
"242","Formate","Inositol",0.189335033525039,0.0991092718243043,0.146725150462898
"243","Gln","Inositol",0.609965558166608,1.49843581986886e-09,1.01251448971139e-08
"244","Glu","Inositol",0.528771335523993,3.8885403563782e-07,1.71895288651111e-06
"245","glucose","Inositol",-0.100656391028423,0.374332145489981,0.454612891083332
"246","Glucose","Inositol",0.689120516934278,1.14219744773436e-12,1.31770583604476e-11
"247","Glutathione","Inositol",0.615694778217293,1.21628818128272e-09,8.4603574962754e-09
"248","Glycerol","Inositol",-0.127706666518136,0.255891710049887,0.332518623224167
"249","Glycogen","Inositol",0.253163324347608,0.024378821714337,0.0431072249378745
"250","Ile","Inositol",-0.0236183571606026,0.834221449924452,0.866271670283789
"251","Inosine","Inositol",0.476363791508623,9.09606559496012e-06,3.17523175381265e-05
"252","Inosine.1","Inositol",0.633328063759694,2.22749596545668e-10,1.74149684572068e-09
"253","Inosine.2","Inositol",0.671930755851385,6.5447647301653e-12,6.51720782603829e-11
"254","Acetate","Lactate",0.358117761469099,0.00102870129308674,0.00263013898178394
"255","Adenine","Lactate",0.657272410512062,2.65316657532821e-11,2.39037674310523e-10
"256","Ala","Lactate",0.492760579731096,2.96658864717969e-06,1.1180848048733e-05
"257","Arg_and_Lys","Lactate",0.411303984695782,0.000136472130826348,0.000398464925190511
"258","Ascorbate","Lactate",0.556464772565397,1.22342930453101e-07,6.08933728674041e-07
"259","Asn","Lactate",0.237580261788775,0.032706433576164,0.0550538899698419
"260","Asp","Lactate",0.238327837144384,0.0321461137239689,0.0542071721619868
"261","B_hydroxybutyrate","Lactate",0.281912130128665,0.0107811203150665,0.0216079233433324
"262","Creatine","Lactate",0.660059857243617,2.04531946934594e-11,1.87851671650608e-10
"263","Ethanolamine","Lactate",0.22066753725345,0.0477467494157524,0.0765566524530539
"264","Formate","Lactate",0.0345686642012749,0.765347148086706,0.813503822573061
"265","Gln","Lactate",0.642015394997302,1.0517320347958e-10,8.80476553023744e-10
"266","Glu","Lactate",0.599159669385165,3.43716233253133e-09,2.27381508152073e-08
"267","glucose","Lactate",-0.243953043012408,0.0292053910782,0.0499457558102769
"268","Glucose","Lactate",0.707619247515852,1.51878509768721e-13,2.17692530668501e-12
"269","Glutathione","Lactate",0.519385526310204,7.9523149043581e-07,3.28036146841819e-06
"270","Glycerol","Lactate",-0.193736730966304,0.0830974800535702,0.125375145343983
"271","Glycogen","Lactate",0.0988204360662441,0.386238634892274,0.46604814873481
"272","Ile","Lactate",0.220898388466081,0.0475084393987477,0.0765566524530539
"273","Inosine","Lactate",0.274914633430905,0.0142067776796044,0.0272056916698498
"274","Inosine.1","Lactate",0.458867641118261,1.6442139116446e-05,5.4962062205505e-05
"275","Inosine.2","Lactate",0.530149805659908,3.58053996896146e-07,1.60530370172395e-06
"276","Inositol","Lactate",0.768576189992503,0,0
"277","Acetate","Leu",0.639817277841844,1.27451382780919e-10,1.04842615748477e-09
"278","Adenine","Leu",0.0553171546983163,0.62378567004462,0.695874108328078
"279","Ala","Leu",0.871285955558129,0,0
"280","Arg_and_Lys","Leu",0.919277245022208,0,0
"281","Ascorbate","Leu",-0.0767825075245972,0.504029066066634,0.587930328605469
"282","Asn","Leu",0.554303206028025,7.93167984625143e-08,4.2155266144733e-07
"283","Asp","Leu",0.254776962314483,0.0217117879824105,0.0388750647766199
"284","B_hydroxybutyrate","Leu",0.126233822362703,0.261460801769885,0.338399412978295
"285","Creatine","Leu",0.201770731042644,0.0708654141139924,0.109183520768464
"286","Ethanolamine","Leu",0.508144610079913,1.28110594843633e-06,5.13528062381683e-06
"287","Formate","Leu",-0.12387112044349,0.283124840396021,0.362430445216016
"288","Gln","Leu",0.495090593999059,2.61914146593156e-06,1.00312057764019e-05
"289","Glu","Leu",0.563497759277452,4.32820130846778e-08,2.40851672812384e-07
"290","glucose","Leu",-0.287354435691344,0.0097525906799405,0.0198407543725241
"291","Glucose","Leu",0.179573468572315,0.108689692865612,0.157700075844892
"292","Glutathione","Leu",-0.0994959854724622,0.379892315190888,0.460151255019948
"293","Glycerol","Leu",0.00976805113326505,0.931030722827672,0.941618423428534
"294","Glycogen","Leu",-0.23030480087401,0.0411611833771328,0.0673676115480409
"295","Ile","Leu",0.967861236443124,0,0
"296","Inosine","Leu",-0.223521320561426,0.0476850146261429,0.0765566524530539
"297","Inosine.1","Leu",-0.224367769454383,0.0440435667238566,0.071589714984138
"298","Inosine.2","Leu",-0.220725985486944,0.0476863197453652,0.0765566524530539
"299","Inositol","Leu",0.0676822485852681,0.548265320033643,0.627916456116013
"300","Lactate","Leu",0.318672570101532,0.00373788722081114,0.00841914597830319
"301","Acetate","Lipids",-0.223093689355366,0.0452908528138494,0.0732395671143615
"302","Adenine","Lipids",-0.146044956910447,0.193271154762837,0.259708114212562
"303","Ala","Lipids",-0.191507383119327,0.0867736015576996,0.130298138212038
"304","Arg_and_Lys","Lipids",-0.141504373329845,0.207634550106077,0.277432605085238
"305","Ascorbate","Lipids",-0.217777581158911,0.0554461046125501,0.0872745673269091
"306","Asn","Lipids",-0.31154354478846,0.00463830724278114,0.010157033915905
"307","Asp","Lipids",0.280049916187829,0.0113361736601321,0.0225562690387435
"308","B_hydroxybutyrate","Lipids",0.32197934434098,0.00337588310858594,0.00769538655595735
"309","Creatine","Lipids",-0.301181824859826,0.00629019933285146,0.013432344399272
"310","Ethanolamine","Lipids",-0.273369921456923,0.0135370174859817,0.0264041619417292
"311","Formate","Lipids",-0.331512630248561,0.00322744530420094,0.00740327900314709
"312","Gln","Lipids",-0.236558897067533,0.0334852036800475,0.0560654914713715
"313","Glu","Lipids",-0.334410049050318,0.00227873809304446,0.00537577614967597
"314","glucose","Lipids",0.346119583395927,0.00166156789363203,0.00399960108747049
"315","Glucose","Lipids",-0.280005646527386,0.0113496660279513,0.0225562690387435
"316","Glutathione","Lipids",-0.228552506793284,0.0414362856957431,0.0677007362144611
"317","Glycerol","Lipids",-0.75393693037019,4.44089209850063e-16,9.33574205595909e-15
"318","Glycogen","Lipids",-0.00925131313886193,0.935506735367605,0.944061350244006
"319","Ile","Lipids",-0.109585328422566,0.330118332707289,0.410910450975126
"320","Inosine","Lipids",-0.22133427471058,0.0499616857912442,0.0797027904865379
"321","Inosine.1","Lipids",-0.177518802267962,0.112862472818535,0.163004426391349
"322","Inosine.2","Lipids",-0.178777920999061,0.110290919409871,0.159778269160395
"323","Inositol","Lipids",-0.127343255972492,0.257258258821915,0.333835820089893
"324","Lactate","Lipids",-0.0507987419553646,0.652441047840021,0.721882141820655
"325","Leu","Lipids",-0.0969210007874664,0.389370180780399,0.468035820861827
"326","Acetate","Lys",0.684774015765817,1.79589676463365e-12,1.93058902198118e-11
"327","Adenine","Lys",0.395451132161712,0.000258313232770258,0.000722971355623265
"328","Ala","Lys",0.840172566659921,0,0
"329","Arg_and_Lys","Lys",0.902452383790144,0,0
"330","Ascorbate","Lys",0.289669215526754,0.0100998981219551,0.0204593225339819
"331","Asn","Lys",0.582893801541563,1.13339007068447e-08,6.82921660425165e-08
"332","Asp","Lys",0.384063740526641,0.000400691966072619,0.00108611633210515
"333","B_hydroxybutyrate","Lys",0.302120450867091,0.00612165606653359,0.0131020059704542
"334","Creatine","Lys",0.479657810848348,5.87745932612016e-06,2.11409753707592e-05
"335","Ethanolamine","Lys",0.446263213600055,2.97160597821922e-05,9.69358363929441e-05
"336","Formate","Lys",-0.0370000329622632,0.749367937112376,0.801925416864602
"337","Gln","Lys",0.694769117210136,6.26609875098438e-13,8.0104451600422e-12
"338","Glu","Lys",0.726312700628887,1.68753899743024e-14,2.90256707558001e-13
"339","glucose","Lys",-0.279330919118617,0.0120986785374786,0.0237949062296356
"340","Glucose","Lys",0.553315715911116,8.45566949791987e-08,4.40849637830385e-07
"341","Glutathione","Lys",0.25483231983377,0.022535484953689,0.0401479637781351
"342","Glycerol","Lys",-0.0494689471618608,0.660973700785022,0.729616243807037
"343","Glycogen","Lys",-0.041333682314009,0.7175906839589,0.775818042314423
"344","Ile","Lys",0.643523433745215,9.21027698552734e-11,7.78292057785584e-10
"345","Inosine","Lys",0.0414315712659229,0.71695007210369,0.775818042314423
"346","Inosine.1","Lys",0.163090613799253,0.14573536062872,0.203042196104225
"347","Inosine.2","Lys",0.162215421819649,0.147939168317812,0.205712951794837
"348","Inositol","Lys",0.360022586476861,0.000962432508205158,0.00247407921946217
"349","Lactate","Lys",0.562181300940682,4.72565244713508e-08,2.61430831285952e-07
"350","Leu","Lys",0.738880513736482,3.5527136788005e-15,7.00180654196932e-14
"351","Lipids","Lys",-0.124158648448348,0.269445953223329,0.347743344814828
"352","Acetate","Met",0.641602015681015,1.09055653396695e-10,9.04970597484852e-10
"353","Adenine","Met",0.436047857596616,4.72059566205552e-05,0.000149855150882702
"354","Ala","Met",0.819571884291881,0,0
"355","Arg_and_Lys","Met",0.803543701595991,0,0
"356","Ascorbate","Met",0.346533964812269,0.00188357073918599,0.00449964121027765
"357","Asn","Met",0.470631087409427,9.26298230696787e-06,3.22161075823221e-05
"358","Asp","Met",0.380428338802824,0.000459457301353883,0.00122605937573082
"359","B_hydroxybutyrate","Met",0.259606427125695,0.0192619287222153,0.0351094115052326
"360","Creatine","Met",0.485649756173924,4.31439910841824e-06,1.58810177298197e-05
"361","Ethanolamine","Met",0.342096051152721,0.00177262305362191,0.00424901644936473
"362","Formate","Met",0.0945348187604632,0.413468448295242,0.492001449166414
"363","Gln","Met",0.893118478702742,0,0
"364","Glu","Met",0.903624195143506,0,0
"365","glucose","Met",-0.278892587556847,0.0122399011321788,0.0240227105208322
"366","Glucose","Met",0.564373878114573,4.08153195685657e-08,2.28469185277296e-07
"367","Glutathione","Met",0.268478362792442,0.0160429301843612,0.0299933042577188
"368","Glycerol","Met",0.0575514790169017,0.60981607703387,0.681898355643074
"369","Glycogen","Met",0.00902578709785131,0.937075695432476,0.944061350244006
"370","Ile","Met",0.636169612146033,1.7471979418815e-10,1.40071970594906e-09
"371","Inosine","Met",0.0335534524512538,0.769095118345311,0.816570125650577
"372","Inosine.1","Met",0.193073387773864,0.084178138537943,0.126803374294417
"373","Inosine.2","Met",0.23331300745641,0.0360641444020815,0.0601619381770339
"374","Inositol","Met",0.49671390664338,2.40011949204089e-06,9.22972780272634e-06
"375","Lactate","Met",0.596972282868844,4.05104128020639e-09,2.62485277470907e-08
"376","Leu","Met",0.73253194371044,7.7715611723761e-15,1.44154840569957e-13
"377","Lipids","Met",-0.250674737306907,0.023997059585402,0.0425116448835024
"378","Lys","Met",0.775942678338283,0,0
"379","Acetate","PC1",0.300817094041195,0.00635678890763058,0.013483233871342
"380","Adenine","PC1",0.509480627065571,1.18868882981182e-06,4.80555398718797e-06
"381","Ala","PC1",0.443898582641595,3.31201697747474e-05,0.000106934063504816
"382","Arg_and_Lys","PC1",0.358305287669949,0.00102199819087456,0.00262008208283831
"383","Ascorbate","PC1",0.515059537064916,1.40108196333699e-06,5.52259807215331e-06
"384","Asn","PC1",0.447761194608157,2.77314145193941e-05,9.07748032364942e-05
"385","Asp","PC1",0.318224425742517,0.00378952062288906,0.00851516985570797
"386","B_hydroxybutyrate","PC1",-0.0272413092248254,0.809240535934506,0.852496154781784
"387","Creatine","PC1",0.687296012462578,1.38244971026324e-12,1.57565954928799e-11
"388","Ethanolamine","PC1",0.618256044759177,7.75657760243575e-10,5.68815690845289e-09
"389","Formate","PC1",0.00669138141004854,0.953942290475127,0.957993000838078
"390","Gln","PC1",0.499991531221188,2.00937390459899e-06,7.75864372959446e-06
"391","Glu","PC1",0.548930692647527,1.12057703116619e-07,5.73008579180118e-07
"392","glucose","PC1",-0.173025753130923,0.124824597442812,0.177570028843459
"393","Glucose","PC1",0.69202970184842,8.39772695826468e-13,1.00560122816688e-11
"394","Glutathione","PC1",0.351556960307685,0.00138546850887389,0.00340429405037584
"395","Glycerol","PC1",0.0262789384947444,0.815858778558857,0.85660644230486
"396","Glycogen","PC1",0.015666654498307,0.891001434710698,0.90926360003918
"397","Ile","PC1",0.255235772411864,0.0214681441315934,0.0386100082670862
"398","Inosine","PC1",0.234328494515464,0.0376545508739881,0.0622748341377495
"399","Inosine.1","PC1",0.317679543269015,0.00385315550846044,0.00861722248464202
"400","Inosine.2","PC1",0.321089988047631,0.00347002957673981,0.00788693112587422
"401","Inositol","PC1",0.686576435536114,1.48991929904696e-12,1.65747415792339e-11
"402","Lactate","PC1",0.679602001460881,3.04689606878128e-12,3.13300400115988e-11
"403","Leu","PC1",0.298744198432395,0.00674718876587499,0.0141840901611505
"404","Lipids","PC1",-0.247827437349968,0.0257008711196116,0.0447753666282736
"405","Lys","PC1",0.548661422667155,1.13997275175137e-07,5.76692097944812e-07
"406","Met","PC1",0.491792819735647,3.12327456608585e-06,1.16783309862341e-05
"407","Acetate","PC2",0.206635836614471,0.0641915936334438,0.10020667917036
"408","Adenine","PC2",0.598618906191772,3.58008289680356e-09,2.33569546232839e-08
"409","Ala","PC2",0.24936475874972,0.0247686231578039,0.0434544466209937
"410","Arg_and_Lys","PC2",0.127747035646436,0.25574021409886,0.332518623224167
"411","Ascorbate","PC2",0.655805395067176,7.19682091698814e-11,6.24604824538604e-10
"412","Asn","PC2",0.165041307673935,0.140912176192419,0.197193666683474
"413","Asp","PC2",0.096996047486496,0.389001389859874,0.468035820861827
"414","B_hydroxybutyrate","PC2",0.254726357717806,0.0217388047218097,0.0388750647766199
"415","Creatine","PC2",0.70777292199959,1.49213974509621e-13,2.17163722901695e-12
"416","Ethanolamine","PC2",-0.0470439442119362,0.676644927469264,0.743444949344859
"417","Formate","PC2",0.186089311365599,0.105144997294124,0.153026411446525
"418","Gln","PC2",0.545167100564351,1.42238922862248e-07,6.83035639734449e-07
"419","Glu","PC2",0.471152274820918,9.02600516594632e-06,3.16244477295749e-05
"420","glucose","PC2",-0.118573044459776,0.294841815665058,0.374166907234078
"421","Glucose","PC2",0.76676849076234,0,0
"422","Glutathione","PC2",0.747194205086508,1.77635683940025e-15,3.57539057462263e-14
"423","Glycerol","PC2",-0.113190821426916,0.31435707486022,0.392842526839852
"424","Glycogen","PC2",0.25076078490513,0.0258119457413337,0.0448038544427554
"425","Ile","PC2",-0.120328389054863,0.284611729539651,0.363350467131592
"426","Inosine","PC2",0.552622609748558,1.288587625492e-07,6.28352522533728e-07
"427","Inosine.1","PC2",0.772645403473139,0,0
"428","Inosine.2","PC2",0.787867495839363,0,0
"429","Inositol","PC2",0.753533174872407,4.44089209850063e-16,9.33574205595909e-15
"430","Lactate","PC2",0.69289191210151,7.66053886991358e-13,9.41151918303669e-12
"431","Leu","PC2",-0.0239404650322406,0.83199340916693,0.864907434144963
"432","Lipids","PC2",-0.176078327326324,0.11586099196035,0.166572186009865
"433","Lys","PC2",0.356952891034851,0.00107124092133115,0.00271687375758517
"434","Met","PC2",0.390076167839642,0.000318418530074194,0.00087311283898605
"435","PC1","PC2",0.575686908401119,1.88370929965487e-08,1.09999320831698e-07
"436","Acetate","PC3",0.206635836614471,0.0641915936334438,0.10020667917036
"437","Adenine","PC3",0.598618906191772,3.58008289680356e-09,2.33569546232839e-08
"438","Ala","PC3",0.24936475874972,0.0247686231578039,0.0434544466209937
"439","Arg_and_Lys","PC3",0.127747035646436,0.25574021409886,0.332518623224167
"440","Ascorbate","PC3",0.655805395067176,7.19682091698814e-11,6.24604824538604e-10
"441","Asn","PC3",0.165041307673935,0.140912176192419,0.197193666683474
"442","Asp","PC3",0.096996047486496,0.389001389859874,0.468035820861827
"443","B_hydroxybutyrate","PC3",0.254726357717806,0.0217388047218097,0.0388750647766199
"444","Creatine","PC3",0.70777292199959,1.49213974509621e-13,2.17163722901695e-12
"445","Ethanolamine","PC3",-0.0470439442119362,0.676644927469264,0.743444949344859
"446","Formate","PC3",0.186089311365599,0.105144997294124,0.153026411446525
"447","Gln","PC3",0.545167100564351,1.42238922862248e-07,6.83035639734449e-07
"448","Glu","PC3",0.471152274820918,9.02600516594632e-06,3.16244477295749e-05
"449","glucose","PC3",-0.118573044459776,0.294841815665058,0.374166907234078
"450","Glucose","PC3",0.76676849076234,0,0
"451","Glutathione","PC3",0.747194205086508,1.77635683940025e-15,3.57539057462263e-14
"452","Glycerol","PC3",-0.113190821426916,0.31435707486022,0.392842526839852
"453","Glycogen","PC3",0.25076078490513,0.0258119457413337,0.0448038544427554
"454","Ile","PC3",-0.120328389054863,0.284611729539651,0.363350467131592
"455","Inosine","PC3",0.552622609748558,1.288587625492e-07,6.28352522533728e-07
"456","Inosine.1","PC3",0.772645403473139,0,0
"457","Inosine.2","PC3",0.787867495839363,0,0
"458","Inositol","PC3",0.753533174872407,4.44089209850063e-16,9.33574205595909e-15
"459","Lactate","PC3",0.69289191210151,7.66053886991358e-13,9.41151918303669e-12
"460","Leu","PC3",-0.0239404650322406,0.83199340916693,0.864907434144963
"461","Lipids","PC3",-0.176078327326324,0.11586099196035,0.166572186009865
"462","Lys","PC3",0.356952891034851,0.00107124092133115,0.00271687375758517
"463","Met","PC3",0.390076167839642,0.000318418530074194,0.00087311283898605
"464","PC1","PC3",0.575686908401119,1.88370929965487e-08,1.09999320831698e-07
"465","PC2","PC3",1,0,0
"466","Acetate","Phe",0.559499003537771,5.64535076463812e-08,3.08699527361137e-07
"467","Adenine","Phe",0.302748823354189,0.00601106425681697,0.0128944825100881
"468","Ala","Phe",0.697497261395649,4.66737759552416e-13,6.3436367270242e-12
"469","Arg_and_Lys","Phe",0.697246567078917,4.79616346638068e-13,6.39038118196637e-12
"470","Ascorbate","Phe",0.124053018812394,0.279206208045206,0.358117803489037
"471","Asn","Phe",0.614676101602074,1.03317687738524e-09,7.23989130375142e-09
"472","Asp","Phe",0.186206857714396,0.0960314617620099,0.143289846730065
"473","B_hydroxybutyrate","Phe",0.0744409306575602,0.508950682938967,0.592940081355004
"474","Creatine","Phe",0.195053362895962,0.0809852158630942,0.122655041761292
"475","Ethanolamine","Phe",0.408370461341966,0.000153946153271356,0.000448101726137547
"476","Formate","Phe",0.239242754231877,0.0361226013578808,0.0601619381770339
"477","Gln","Phe",0.483808310176552,4.7473762680994e-06,1.72731459600847e-05
"478","Glu","Phe",0.475894123377625,7.11612590498234e-06,2.53077259628319e-05
"479","glucose","Phe",-0.0586870009359943,0.605088319628963,0.677412485643786
"480","Glucose","Phe",0.239232937047685,0.0314785461025111,0.0533668541451174
"481","Glutathione","Phe",0.0857241661529864,0.44960950736262,0.532995731785763
"482","Glycerol","Phe",0.18905565402165,0.0909638681027234,0.136157941811988
"483","Glycogen","Phe",0.115459060910686,0.310936498904478,0.389597255580975
"484","Ile","Phe",0.689963016060377,1.04516395538212e-12,1.22064827381665e-11
"485","Inosine","Phe",0.223367216772213,0.0478425831932876,0.0765805138762269
"486","Inosine.1","Phe",0.105217985905343,0.349869880589068,0.429282629101503
"487","Inosine.2","Phe",0.107888808451936,0.337705203821499,0.418153302114055
"488","Inositol","Phe",0.126226037212954,0.261490455483228,0.338399412978295
"489","Lactate","Phe",0.271772399227477,0.0141151671447721,0.0271401384531594
"490","Leu","Phe",0.697019663474668,4.91606755304019e-13,6.4591665349667e-12
"491","Lipids","Phe",-0.352931544125416,0.0012306453479789,0.00307174274192094
"492","Lys","Phe",0.586011395762335,9.06287844770759e-09,5.49582244328935e-08
"493","Met","Phe",0.578163381464821,1.58415986994953e-08,9.3663452310766e-08
"494","PC1","Phe",0.268615249156539,0.0153208496746324,0.0289975886681082
"495","PC2","Phe",0.0614645331010043,0.585685692145021,0.661167857719797
"496","PC3","Phe",0.0614645331010043,0.585685692145021,0.661167857719797
"497","Acetate","Scyllo.inositol",0.203275078376946,0.068744708758038,0.106262245890693
"498","Adenine","Scyllo.inositol",0.533878781855181,2.85890966678082e-07,1.31287793435663e-06
"499","Ala","Scyllo.inositol",0.293731012983325,0.00777993233581542,0.0161046301743575
"500","Arg_and_Lys","Scyllo.inositol",0.182183674402908,0.103562495833053,0.151656534145617
"501","Ascorbate","Scyllo.inositol",0.536239582533645,4.1925870730708e-07,1.82773611572579e-06
"502","Asn","Scyllo.inositol",0.311980123380683,0.00457807861987836,0.0100685274520476
"503","Asp","Scyllo.inositol",0.214505127176348,0.0544815501746296,0.0860426485228708
"504","B_hydroxybutyrate","Scyllo.inositol",0.157142212032257,0.161208357963727,0.221018995121283
"505","Creatine","Scyllo.inositol",0.517131757557962,7.69420919422004e-07,3.20648541750315e-06
"506","Ethanolamine","Scyllo.inositol",0.212843083834473,0.0564253951718925,0.0886684781272596
"507","Formate","Scyllo.inositol",0.278891533073004,0.0140422577442627,0.0271101547470868
"508","Gln","Scyllo.inositol",0.529166314181998,3.79781675441393e-07,1.69468615550735e-06
"509","Glu","Scyllo.inositol",0.445886347851255,3.0235796143252e-05,9.82923132354515e-05
"510","glucose","Scyllo.inositol",0.0388571428898431,0.732194193937127,0.78890171692998
"511","Glucose","Scyllo.inositol",0.51379172102299,9.31525818703705e-07,3.78207478323478e-06
"512","Glutathione","Scyllo.inositol",0.533942857592198,3.38834541535604e-07,1.53367213537168e-06
"513","Glycerol","Scyllo.inositol",0.0121454060960475,0.914302179524484,0.929033149119401
"514","Glycogen","Scyllo.inositol",0.273226903956906,0.0148368533588477,0.0282977082207054
"515","Ile","Scyllo.inositol",0.0616364488707155,0.584635592990804,0.661167857719797
"516","Inosine","Scyllo.inositol",0.440376632703989,4.87871245828941e-05,0.000153649338290255
"517","Inosine.1","Scyllo.inositol",0.507896357095673,1.2990085340725e-06,5.18507203895605e-06
"518","Inosine.2","Scyllo.inositol",0.52113694048892,6.10132236289473e-07,2.59294502056187e-06
"519","Inositol","Scyllo.inositol",0.755650666862414,4.44089209850063e-16,9.33574205595909e-15
"520","Lactate","Scyllo.inositol",0.520481111830428,6.33881451772567e-07,2.67701720257521e-06
"521","Leu","Scyllo.inositol",0.102364738990096,0.363162697863126,0.4443369319863
"522","Lipids","Scyllo.inositol",-0.147222739825836,0.189665265414253,0.255953410958465
"523","Lys","Scyllo.inositol",0.315073830475203,0.00417082048196171,0.00924027207479105
"524","Met","Scyllo.inositol",0.417170605334179,0.000106891847609258,0.000317986439743266
"525","PC1","Scyllo.inositol",0.610912848699545,1.39117206643391e-09,9.53658532497448e-09
"526","PC2","Scyllo.inositol",0.607390091740561,1.83148185506354e-09,1.22012805273952e-08
"527","PC3","Scyllo.inositol",0.607390091740561,1.83148185506354e-09,1.22012805273952e-08
"528","Phe","Scyllo.inositol",0.203427635873054,0.0685325334105515,0.106253200821813
"529","Acetate","Succinate",0.493918346634921,2.78885530313744e-06,1.06381335353549e-05
"530","Adenine","Succinate",0.558016229115184,6.22431302055304e-08,3.34556824854726e-07
"531","Ala","Succinate",0.42163544884883,8.84866604486945e-05,0.000267438916244297
"532","Arg_and_Lys","Succinate",0.402358109730162,0.000196387384908903,0.000561276332700368
"533","Ascorbate","Succinate",0.581483145768945,2.3703392582064e-08,1.35080779413449e-07
"534","Asn","Succinate",0.318997063799671,0.00370089279181585,0.00835571499059139
"535","Asp","Succinate",0.0723356918298395,0.521039406998427,0.604048136054549
"536","B_hydroxybutyrate","Succinate",0.338406284193782,0.00200134780104655,0.00475697241153275
"537","Creatine","Succinate",0.553268621792234,8.48146237686365e-08,4.40849637830385e-07
"538","Ethanolamine","Succinate",0.133962349799147,0.233141790749565,0.307604092118673
"539","Formate","Succinate",0.410927210186272,0.000205387923746025,0.000584333557819146
"540","Gln","Succinate",0.690079052967542,1.0325074129014e-12,1.22064827381665e-11
"541","Glu","Succinate",0.57449908645776,2.04583057161756e-08,1.18733479800626e-07
"542","glucose","Succinate",-0.0806993279175186,0.476713410215748,0.560909062268778
"543","Glucose","Succinate",0.695726563693374,5.6532556413913e-13,7.32599977637831e-12
"544","Glutathione","Succinate",0.57054858891552,3.29037030954993e-08,1.85279185287752e-07
"545","Glycerol","Succinate",0.16851591515236,0.13262061471845,0.187532289273025
"546","Glycogen","Succinate",0.244176633716255,0.0301102219117708,0.0513230088802436
"547","Ile","Succinate",0.230013890980924,0.0388535112922583,0.0641455875784928
"548","Inosine","Succinate",0.357866738249516,0.00120353299205034,0.00302000586334117
"549","Inosine.1","Succinate",0.519248796102405,6.80888462056828e-07,2.86275771158115e-06
"550","Inosine.2","Succinate",0.553534123309167,8.3370208514566e-08,4.38156762526552e-07
"551","Inositol","Succinate",0.527301269064996,4.2445489123466e-07,1.84190058306417e-06
"552","Lactate","Succinate",0.536488127247553,2.43836773439199e-07,1.13867573964665e-06
"553","Leu","Succinate",0.282184340020058,0.0107020033413765,0.0215406280020046
"554","Lipids","Succinate",-0.333980823935007,0.0023104970524499,0.00543713982989454
"555","Lys","Succinate",0.502388615990027,1.76243151028821e-06,6.889504994763e-06
"556","Met","Succinate",0.554302655140326,7.93196339721192e-08,4.2155266144733e-07
"557","PC1","Succinate",0.391735229184794,0.000298620862536625,0.000826009754267974
"558","PC2","Succinate",0.591551523375782,6.05539351994366e-09,3.79408750509839e-08
"559","PC3","Succinate",0.591551523375782,6.05539351994366e-09,3.79408750509839e-08
"560","Phe","Succinate",0.374582827509494,0.000570668350145409,0.0015121912023461
"561","Scyllo.inositol","Succinate",0.413494604694631,0.000124639142955019,0.000367316601979588
"562","Acetate","Thr",0.460755194838983,1.92902468472145e-05,6.42346067701576e-05
"563","Adenine","Thr",0.65513757626145,5.73319169916431e-11,5.06878443683125e-10
"564","Ala","Thr",0.625889385165653,6.92037316341043e-10,5.15486063983171e-09
"565","Arg_and_Lys","Thr",0.597169811718949,6.28031449068089e-09,3.88312255436871e-08
"566","Ascorbate","Thr",0.548304193553358,2.44345851108108e-07,1.13867573964665e-06
"567","Asn","Thr",0.355402034675862,0.00130828349486123,0.00324838893999665
"568","Asp","Thr",0.218831406110616,0.052675968229726,0.0834697922032174
"569","B_hydroxybutyrate","Thr",0.425017653041673,9.45161188781185e-05,0.000284752383626433
"570","Creatine","Thr",0.564910956820404,5.85289567922587e-08,3.18209155893544e-07
"571","Ethanolamine","Thr",0.0979849188882925,0.390286843491195,0.468542327338415
"572","Formate","Thr",0.278645148045883,0.0154880627128848,0.0291866679808547
"573","Gln","Thr",0.826455033033093,0,0
"574","Glu","Thr",0.741925671714037,5.32907051820075e-15,1.00826014204358e-13
"575","glucose","Thr",-0.257279619640719,0.0229676776797927,0.0408410208366238
"576","Glucose","Thr",0.683282208639578,3.97681887420731e-12,4.04523726344098e-11
"577","Glutathione","Thr",0.6538811748051,8.53415116353062e-11,7.33937000063634e-10
"578","Glycerol","Thr",0.0191347956291411,0.867072448962401,0.890608617501011
"579","Glycogen","Thr",0.263356470549128,0.0206590061592058,0.0372966027225357
"580","Ile","Thr",0.279902864764446,0.0124779369478807,0.0244391891360148
"581","Inosine","Thr",0.397583709235983,0.000342911546287183,0.000937555846207155
"582","Inosine.1","Thr",0.546959443375518,1.83436595024844e-07,8.76419287340921e-07
"583","Inosine.2","Thr",0.633615522078269,3.67667229994595e-10,2.80494515786199e-09
"584","Inositol","Thr",0.624258248290698,7.89142973189882e-10,5.73287288379156e-09
"585","Lactate","Thr",0.764653610814155,2.22044604925031e-16,5.52774200681788e-15
"586","Leu","Thr",0.427863694190156,8.38151429243261e-05,0.000254948955647629
"587","Lipids","Thr",-0.276262294304234,0.0137204072650299,0.0266519615456227
"588","Lys","Thr",0.692797887408377,1.50679468902126e-12,1.65747415792339e-11
"589","Met","Thr",0.758065596046239,4.44089209850063e-16,9.33574205595909e-15
"590","PC1","Thr",0.459698476975207,2.02707653782497e-05,6.7049454712672e-05
"591","PC2","Thr",0.674394118291481,9.53193080022174e-12,9.20123116021405e-11
"592","PC3","Thr",0.674394118291481,9.53193080022174e-12,9.20123116021405e-11
"593","Phe","Thr",0.488261968896178,5.0006379321843e-06,1.81249175626297e-05
"594","Scyllo.inositol","Thr",0.470231646741342,1.22751066800042e-05,4.20733728959564e-05
"595","Succinate","Thr",0.671393879167007,1.27171606578713e-11,1.20304339823463e-10
"596","Acetate","Tyr",0.558420291961567,6.06118555346313e-08,3.27650373347207e-07
"597","Adenine","Tyr",0.29733544890575,0.00702442573396689,0.0146691098108889
"598","Ala","Tyr",0.729331714907134,1.15463194561016e-14,2.02274411212447e-13
"599","Arg_and_Lys","Tyr",0.710187072723116,1.13242748511766e-13,1.70043873162112e-12
"600","Ascorbate","Tyr",0.0779542695514433,0.497523555966646,0.5832184435495
"601","Asn","Tyr",0.680533754089029,2.77244893709394e-12,2.91415188276763e-11
"602","Asp","Tyr",0.267836270556846,0.0156316605315967,0.0293987094689672
"603","B_hydroxybutyrate","Tyr",0.0384608869728759,0.733183354092442,0.789068774711547
"604","Creatine","Tyr",0.267144365585092,0.015912276865764,0.0298079483465599
"605","Ethanolamine","Tyr",0.479470154293601,5.93408802340711e-06,2.12638154172088e-05
"606","Formate","Tyr",0.176450482968963,0.124760869893363,0.177570028843459
"607","Gln","Tyr",0.521106004612843,6.11233339942174e-07,2.59294502056187e-06
"608","Glu","Tyr",0.535667094848966,2.56392158837215e-07,1.18895579539218e-06
"609","glucose","Tyr",-0.0375323807858089,0.740997343537191,0.795778600821041
"610","Glucose","Tyr",0.290248447204969,0.00857679980972925,0.017638375260878
"611","Glutathione","Tyr",0.0517796128619347,0.648283455094885,0.71896383179339
"612","Glycerol","Tyr",0.187527173220607,0.0936559267914066,0.139966045410222
"613","Glycogen","Tyr",0.0702369431726754,0.538495661327197,0.618975571829317
"614","Ile","Tyr",0.731502394260112,8.88178419700125e-15,1.58531468874777e-13
"615","Inosine","Tyr",0.149507909363143,0.188483180614864,0.255085964036711
"616","Inosine.1","Tyr",0.0567732683461946,0.614666192316234,0.686510292716833
"617","Inosine.2","Tyr",0.0816055740832969,0.468915972452976,0.553800886317747
"618","Inositol","Tyr",0.142549010787103,0.204264611840986,0.273935562684984
"619","Lactate","Tyr",0.306000870004581,0.00546645458930017,0.0118607019299953
"620","Leu","Tyr",0.735848630563554,5.10702591327572e-15,9.85968676318129e-14
"621","Lipids","Tyr",-0.345228684359119,0.00159723449530813,0.00387431751938844
"622","Lys","Tyr",0.619500158264359,7.0150907305333e-10,5.18459049303477e-09
"623","Met","Tyr",0.634252933635572,2.05875982928205e-10,1.6366275617654e-09
"624","PC1","Tyr",0.365713317856593,0.000786886669163156,0.00206203542667132
"625","PC2","Tyr",0.106474763288625,0.344112107889492,0.423316065102028
"626","PC3","Tyr",0.106474763288625,0.344112107889492,0.423316065102028
"627","Phe","Tyr",0.926630942351202,0,0
"628","Scyllo.inositol","Tyr",0.257257240304724,0.0204222884313585,0.0369397415985949
"629","Succinate","Tyr",0.380391204889287,0.000460096277361988,0.00122605937573082
"630","Thr","Tyr",0.511189692300206,1.47914951620365e-06,5.8061221673388e-06
"631","Acetate","U.1.14",0.162156973626764,0.148087230626093,0.205712951794837
"632","Adenine","U.1.14",0.362741167774419,0.000874558678509496,0.00227915291975202
"633","Ala","U.1.14",0.0994528485352455,0.377043756649968,0.457286402295987
"634","Arg_and_Lys","U.1.14",0.0198022597429683,0.860712329902003,0.888901598348576
"635","Ascorbate","U.1.14",0.287989731137921,0.0105637484606622,0.0213532180422788
"636","Asn","U.1.14",0.0292845447331254,0.795233997334687,0.840549007238675
"637","Asp","U.1.14",0.154431652115821,0.168649620418639,0.229557612828823
"638","B_hydroxybutyrate","U.1.14",0.383459539584265,0.000409955004057494,0.00110804981096683
"639","Creatine","U.1.14",0.325200589617075,0.00305368453722665,0.00706304540884209
"640","Ethanolamine","U.1.14",-0.107626812439933,0.338886572981222,0.419067579137563
"641","Formate","U.1.14",0.186771655649778,0.103852954678856,0.151846823997214
"642","Gln","U.1.14",0.265580712568455,0.0165624961546973,0.0307218065928307
"643","Glu","U.1.14",0.174034086476793,0.12022127916379,0.172578649603863
"644","glucose","U.1.14",-0.0366641270610663,0.746785129898042,0.800066515156906
"645","Glucose","U.1.14",0.304216731489644,0.00575956855636939,0.0124112798503996
"646","Glutathione","U.1.14",0.418572349556972,0.000111590413709006,0.000330923295826708
"647","Glycerol","U.1.14",-0.299115234126128,0.00667579439529842,0.0140652594609183
"648","Glycogen","U.1.14",0.11919905056611,0.2954164421102,0.374166907234078
"649","Ile","U.1.14",-0.155707252072182,0.165116841116507,0.225490413568733
"650","Inosine","U.1.14",0.240372969564082,0.0328575112336931,0.0552099567088342
"651","Inosine.1","U.1.14",0.419214960132208,9.80642173122881e-05,0.000294503966912459
"652","Inosine.2","U.1.14",0.493021365137706,2.92564856896327e-06,1.11151146435311e-05
"653","Inositol","U.1.14",0.34962847528062,0.00137732302138982,0.00339309265165305
"654","Lactate","U.1.14",0.382009656863683,0.000432988897548281,0.00116036118153165
"655","Leu","U.1.14",-0.0954338337856179,0.396721302396086,0.475061205147718
"656","Lipids","U.1.14",0.0665541151131896,0.554967958806466,0.634824291452137
"657","Lys","U.1.14",0.167396951046001,0.135249350318166,0.190395662799084
"658","Met","U.1.14",0.115871492300313,0.302958660668166,0.381623026620619
"659","PC1","U.1.14",0.199334835575497,0.07441062415996,0.113903641513466
"660","PC2","U.1.14",0.483826161593646,4.74298962238606e-06,1.72731459600847e-05
"661","PC3","U.1.14",0.483826161593646,4.74298962238606e-06,1.72731459600847e-05
"662","Phe","U.1.14",-0.0251842232249162,0.823402826537815,0.860706159010799
"663","Scyllo.inositol","U.1.14",0.350920086191471,0.00131818180902954,0.0032643978830941
"664","Succinate","U.1.14",0.271809958761477,0.0141013327031023,0.0271401384531594
"665","Thr","U.1.14",0.309499899583961,0.00551087670877748,0.0119297239508089
"666","Tyr","U.1.14",-0.0180684795420554,0.872800849915018,0.894549950183756
"667","Acetate","U.1.17",0.148265892699213,0.18651238141637,0.252780390859435
"668","Adenine","U.1.17",0.123539675149884,0.271859174864707,0.350379808476857
"669","Ala","U.1.17",0.109388852200706,0.330991393528517,0.411455792743728
"670","Arg_and_Lys","U.1.17",0.101668595952946,0.366452354195079,0.446731864779053
"671","Ascorbate","U.1.17",0.100422405252433,0.381681801950201,0.46113791142387
"672","Asn","U.1.17",0.0227123851349334,0.840495064974973,0.871829310818338
"673","Asp","U.1.17",0.149597673567421,0.182542563916612,0.248111013599303
"674","B_hydroxybutyrate","U.1.17",0.610372303667648,1.45144518626239e-09,9.87818090794404e-09
"675","Creatine","U.1.17",0.161668464177577,0.149329079361993,0.207133884276313
"676","Ethanolamine","U.1.17",-0.1611464323371,0.150664744446958,0.208500384081291
"677","Formate","U.1.17",0.0524458058541009,0.650552569773361,0.7206355164
"678","Gln","U.1.17",0.191604932890393,0.0866100954704621,0.130259380469089
"679","Glu","U.1.17",0.0653602894016537,0.562103400099033,0.641435243056315
"680","glucose","U.1.17",0.113512753313068,0.316075738725554,0.394469193712895
"681","Glucose","U.1.17",0.0545404239495417,0.628673597471849,0.700500851835535
"682","Glutathione","U.1.17",0.240370639799095,0.0317376865652215,0.0536140205191063
"683","Glycerol","U.1.17",-0.417203548543587,0.000106743948705912,0.000317986439743266
"684","Glycogen","U.1.17",0.139890444319555,0.218842546963189,0.290765518858394
"685","Ile","U.1.17",0.0143137852844959,0.899076335669683,0.916515316318449
"686","Inosine","U.1.17",0.104699996348099,0.358468017070225,0.439262621953929
"687","Inosine.1","U.1.17",0.279787246502031,0.0114164341526612,0.0226413977115672
"688","Inosine.2","U.1.17",0.249127641470831,0.0249105117596264,0.0435588615981638
"689","Inositol","U.1.17",0.107937798618708,0.337484590081224,0.418153302114055
"690","Lactate","U.1.17",0.240167373655206,0.030801616186189,0.0523533889388503
"691","Leu","U.1.17",0.0245057904909043,0.828086226562654,0.862741817542148
"692","Lipids","U.1.17",0.22391557218336,0.0444829578778294,0.0721798939149685
"693","Lys","U.1.17",0.160705613977972,0.151799556613437,0.209638511761038
"694","Met","U.1.17",0.102278887086007,0.363567412172001,0.4443369319863
"695","PC1","U.1.17",-0.0759657355283965,0.500285839438628,0.585006679986332
"696","PC2","U.1.17",0.227807861141828,0.040817207781529,0.067036594724525
"697","PC3","U.1.17",0.227807861141828,0.040817207781529,0.067036594724525
"698","Phe","U.1.17",0.0467561508985236,0.67851406428736,0.744633764287521
"699","Scyllo.inositol","U.1.17",0.128325155143014,0.253577371397578,0.331331758759818
"700","Succinate","U.1.17",0.217418065241918,0.0512070453343494,0.0814148989685622
"701","Thr","U.1.17",0.208629284154524,0.0650169462037868,0.101327893095193
"702","Tyr","U.1.17",-0.01908547809809,0.865706265303726,0.890608617501011
"703","U.1.14","U.1.17",0.662239839568766,1.66551217262167e-11,1.54468089735304e-10
"704","Acetate","U.7.61",-0.101263992692403,0.380861858408997,0.460735700837482
"705","Adenine","U.7.61",0.445577873939924,4.88884258196265e-05,0.000153649338290255
"706","Ala","U.7.61",-0.161046695744202,0.161748068874009,0.221438021931712
"707","Arg_and_Lys","U.7.61",-0.0864329800843198,0.454797238291927,0.538470822808715
"708","Ascorbate","U.7.61",0.359438405418183,0.00165978222486096,0.00399960108747049
"709","Asn","U.7.61",0.0217449896323963,0.851101880610299,0.880899758268427
"710","Asp","U.7.61",-0.0619700536968253,0.592369350991517,0.666327474480351
"711","B_hydroxybutyrate","U.7.61",-0.0125287584070934,0.913880340948538,0.929033149119401
"712","Creatine","U.7.61",0.202483223154187,0.0773850118696005,0.117505973079682
"713","Ethanolamine","U.7.61",-0.0607693773879533,0.599574341307322,0.672831941728027
"714","Formate","U.7.61",0.461174604953688,2.75711941422063e-05,9.07748032364942e-05
"715","Gln","U.7.61",0.0857854575018715,0.45819585598159,0.54181659969823
"716","Glu","U.7.61",-0.0808287987404434,0.48466864849728,0.568854269824351
"717","glucose","U.7.61",0.204149150731601,0.076907953518252,0.117157687646162
"718","Glucose","U.7.61",0.203768822967954,0.0754830075748134,0.115172459944796
"719","Glutathione","U.7.61",0.474233569257919,1.50753071777032e-05,5.09330021075259e-05
"720","Glycerol","U.7.61",0.117597570795048,0.308404483064252,0.386937189627032
"721","Glycogen","U.7.61",0.630863354556001,1.00701447180995e-09,7.16267436340011e-09
"722","Ile","U.7.61",-0.20398827449112,0.0751621037441907,0.114868093928925
"723","Inosine","U.7.61",0.800995298819954,0,0
"724","Inosine.1","U.7.61",0.550026618655447,2.20106097348349e-07,1.04110184045769e-06
"725","Inosine.2","U.7.61",0.540627937099663,3.8650755396219e-07,1.71660162463958e-06
"726","Inositol","U.7.61",0.232390154254775,0.0419721553744048,0.0684580327313568
"727","Lactate","U.7.61",0.136249203850664,0.237385944214534,0.312767553240876
"728","Leu","U.7.61",-0.190917814850321,0.0962659458423929,0.143397701374143
"729","Lipids","U.7.61",-0.231246015614185,0.043021446910686,0.0700486898063837
"730","Lys","U.7.61",-0.02969034499491,0.79769845652232,0.842212879319324
"731","Met","U.7.61",-0.0834850506580426,0.470382036192894,0.554839658651469
"732","PC1","U.7.61",0.181505071495,0.114152092338744,0.164615669744591
"733","PC2","U.7.61",0.275364128934286,0.0153570739140827,0.0289975886681082
"734","PC3","U.7.61",0.275364128934286,0.0153570739140827,0.0289975886681082
"735","Phe","U.7.61",0.248902270824332,0.0290459230352154,0.0497779767958582
"736","Scyllo.inositol","U.7.61",0.328169264612161,0.00357141169657682,0.00808266857646333
"737","Succinate","U.7.61",0.189881489088546,0.0981202832835328,0.145488695903169
"738","Thr","U.7.61",0.241285128146156,0.0370318104007725,0.0614598116475979
"739","Tyr","U.7.61",0.186248283168767,0.104842867450368,0.153026411446525
"740","U.1.14","U.7.61",0.0603174603500318,0.602296228848646,0.675085583519927
"741","U.1.17","U.7.61",-0.0161101617279776,0.88940048070572,0.908609994327874
"742","Acetate","UFAs",-0.431191210042739,6.5239395137251e-05,0.000201687803267449
"743","Adenine","UFAs",-0.230085798820103,0.0400536077061324,0.0660116949303158
"744","Ala","UFAs",-0.491452016078451,3.67336820650266e-06,1.36274757778491e-05
"745","Arg_and_Lys","UFAs",-0.464152802103869,1.44663747416729e-05,4.9050862027321e-05
"746","Ascorbate","UFAs",-0.272159636233029,0.0166422364857941,0.0308093066840728
"747","Asn","UFAs",-0.439474845009562,4.53315342223704e-05,0.000144389331226809
"748","Asp","UFAs",0.0739922405215085,0.514216770609473,0.598338333329104
"749","B_hydroxybutyrate","UFAs",0.0947373979464414,0.403209342592609,0.481611159207838
"750","Creatine","UFAs",-0.415277680812592,0.000127935188251049,0.000375859279768611
"751","Ethanolamine","UFAs",-0.33037189840481,0.00276295194071308,0.00645370996522116
"752","Formate","UFAs",-0.146387143991352,0.207008772874144,0.276987693265828
"753","Gln","UFAs",-0.504796788544628,1.79850942250148e-06,7.00160458307161e-06
"754","Glu","UFAs",-0.593976949135727,6.33215568868195e-09,3.88975278019034e-08
"755","glucose","UFAs",0.715210830245035,9.10382880192628e-14,1.38906807203585e-12
"756","Glucose","UFAs",-0.428995071774581,7.17373327412396e-05,0.000220878844127359
"757","Glutathione","UFAs",-0.27605513804315,0.0137942189818143,0.0266857487869046
"758","Glycerol","UFAs",-0.535637680796985,3.05995103033752e-07,1.39841240323637e-06
"759","Glycogen","UFAs",0.241615449129227,0.0330791129946282,0.0554837604484366
"760","Ile","UFAs",-0.363333216223229,0.000924378063025255,0.00238923947437675
"761","Inosine","UFAs",0.0308320740310912,0.78872328125512,0.834599803207319
"762","Inosine.1","UFAs",-0.129696373004565,0.251533321973875,0.329571360924219
"763","Inosine.2","UFAs",-0.169998300488746,0.131662791173719,0.186456587500506
"764","Inositol","UFAs",-0.229111602191745,0.0409275879845592,0.0671013834200919
"765","Lactate","UFAs",-0.354494626549225,0.00125422955267873,0.00312237146535284
"766","Leu","UFAs",-0.387565052515849,0.000382575804172891,0.00104298763904195
"767","Lipids","UFAs",0.757485539854272,4.44089209850063e-16,9.33574205595909e-15
"768","Lys","UFAs",-0.462499635042036,1.56602595917654e-05,5.27210162769042e-05
"769","Met","UFAs",-0.539947841968175,2.35518048397054e-07,1.10845807852544e-06
"770","PC1","UFAs",-0.362473261125337,0.00095259820383764,0.0024554711194289
"771","PC2","UFAs",-0.302838858080234,0.00632427560409621,0.0134444151044382
"772","PC3","UFAs",-0.302838858080234,0.00632427560409621,0.0134444151044382
"773","Phe","UFAs",-0.358680109837997,0.00108664642018108,0.00274857623928156
"774","Scyllo.inositol","UFAs",-0.16475607783177,0.144171607817146,0.201456929091611
"775","Succinate","UFAs",-0.495580928149868,2.9545795035002e-06,1.11801288412448e-05
"776","Thr","UFAs",-0.516889029774456,1.26645487963373e-06,5.09815453673832e-06
"777","Tyr","UFAs",-0.364199521103947,0.000896719528268974,0.00233048536742431
"778","U.1.14","UFAs",-0.0456652582053019,0.687519073312809,0.751216577363109
"779","U.1.17","UFAs",0.0766584422581487,0.499130616647107,0.584378172460598
"780","U.7.61","UFAs",0.0275875268288015,0.81299692810053,0.855017959218145
"781","Acetate","Uracil",0.213805576453351,0.0601638794854367,0.0942301821079852
"782","Adenine","Uracil",0.515232759643089,1.38777916269817e-06,5.4930505770396e-06
"783","Ala","Uracil",0.280141396050127,0.012985946275808,0.0253816222663519
"784","Arg_and_Lys","Uracil",0.276711583958012,0.0141872685360667,0.0272056916698498
"785","Ascorbate","Uracil",0.358873319581763,0.00156814947049444,0.00383325426120863
"786","Asn","Uracil",0.251630000108955,0.0262599239803682,0.0454147862622091
"787","Asp","Uracil",0.0893954724806462,0.436372881030039,0.517953256530009
"788","B_hydroxybutyrate","Uracil",0.11018642709376,0.336875560056102,0.418153302114055
"789","Creatine","Uracil",0.130591493814826,0.254444595933769,0.332006327935648
"790","Ethanolamine","Uracil",0.176843649455469,0.121415430179919,0.174028783257884
"791","Formate","Uracil",0.336423044353754,0.00296453595240331,0.006890543024505
"792","Gln","Uracil",0.402923825008529,0.000254785666291557,0.000715214362943065
"793","Glu","Uracil",0.265383304492299,0.0188626027303231,0.0345814383389258
"794","glucose","Uracil",0.0253511499055712,0.826765320876243,0.86231531813553
"795","Glucose","Uracil",0.216244585703963,0.0572298098539545,0.089783416454131
"796","Glutathione","Uracil",0.286723674444058,0.0114661928286606,0.0226925071462613
"797","Glycerol","Uracil",0.207274198851709,0.068626538797175,0.106253200821813
"798","Glycogen","Uracil",0.420381991598578,0.000156302120445151,0.000453563821905254
"799","Ile","Uracil",0.16196323673868,0.156570926394423,0.215285023792332
"800","Inosine","Uracil",0.538165486766976,5.33327166429842e-07,2.28292986173136e-06
"801","Inosine.1","Uracil",0.398973133343149,0.00029663653460954,0.000822927160529692
"802","Inosine.2","Uracil",0.386719021764033,0.000469838039585113,0.00124850220631325
"803","Inositol","Uracil",0.27134248516164,0.01626069330035,0.0302212492379785
"804","Lactate","Uracil",0.26972523567919,0.0169342809787292,0.0312887300896051
"805","Leu","Uracil",0.181895210769165,0.110970567130776,0.160517058877239
"806","Lipids","Uracil",-0.344340249187239,0.00202170762460918,0.0047933218367927
"807","Lys","Uracil",0.277837851960334,0.0137826003363817,0.0266857487869046
"808","Met","Uracil",0.297175448475422,0.00823726544107584,0.0169770220201694
"809","PC1","Uracil",0.323725812985372,0.0038377701486263,0.00860315298720492
"810","PC2","Uracil",0.176545723586007,0.12205419497136,0.174415813357865
"811","PC3","Uracil",0.176545723586007,0.12205419497136,0.174415813357865
"812","Phe","Uracil",0.627360342423467,7.93875631899255e-10,5.73287288379156e-09
"813","Scyllo.inositol","Uracil",0.320785618240173,0.00419054528318741,0.00926227999508245
"814","Succinate","Uracil",0.258481462929436,0.0223146016202507,0.0398294587410512
"815","Thr","Uracil",0.417358789802559,0.000176232831935685,0.000506736349577989
"816","Tyr","Uracil",0.555282244828357,1.3177506286155e-07,6.39277997266801e-07
"817","U.1.14","Uracil",0.0632006930273721,0.582517149076372,0.659953560510477
"818","U.1.17","Uracil",0.0134816398156622,0.906741525679787,0.923334212371452
"819","U.7.61","Uracil",0.633470482518821,6.29423624332048e-10,4.7256726080803e-09
"820","UFAs","Uracil",-0.176218895069642,0.125264394113362,0.17792810335021
"821","Acetate","Uridine",0.0355775937361412,0.754047710570592,0.803298574549302
"822","Adenine","Uridine",0.582839057915181,1.40875890952685e-08,8.40550573044034e-08
"823","Ala","Uridine",0.0415504184962785,0.71440439577273,0.774550493577806
"824","Arg_and_Lys","Uridine",0.0500542156325451,0.659264422542515,0.72857960715563
"825","Ascorbate","Uridine",0.538153614136556,4.46996419212198e-07,1.92208460261245e-06
"826","Asn","Uridine",0.233161199291247,0.037395830453816,0.0619552637641155
"827","Asp","Uridine",0.164177617311592,0.145604853474614,0.203042196104225
"828","B_hydroxybutyrate","Uridine",0.0761696541404575,0.501878950926229,0.586145046390386
"829","Creatine","Uridine",0.314724293171152,0.00446474728037694,0.00984534015672863
"830","Ethanolamine","Uridine",0.191255678053129,0.0892351317585809,0.133781988341708
"831","Formate","Uridine",0.407917916430454,0.000230990774760187,0.000650349026556955
"832","Gln","Uridine",0.260492431042895,0.0196119245865951,0.0356786166517673
"833","Glu","Uridine",0.195235611748875,0.0826522159332987,0.12490254995671
"834","glucose","Uridine",0.41193154202106,0.00016201448391473,0.000467273481046751
"835","Glucose","Uridine",0.437412450175168,4.96762664150552e-05,0.000155608437180934
"836","Glutathione","Uridine",0.412232278787445,0.000160059736142415,0.000463047432387537
"837","Glycerol","Uridine",0.122410943623671,0.279377313926965,0.358117803489037
"838","Glycogen","Uridine",0.472732331815116,1.24102631318124e-05,4.23830647028682e-05
"839","Ile","Uridine",-0.0711401293522792,0.530608398223255,0.611395304164677
"840","Inosine","Uridine",0.725878052848727,5.52891066263328e-14,8.86499913025607e-13
"841","Inosine.1","Uridine",0.577359708159528,2.06516048706362e-08,1.19124501265987e-07
"842","Inosine.2","Uridine",0.517895971772219,8.65844942410376e-07,3.54584119272821e-06
"843","Inositol","Uridine",0.368512668738994,0.000769882162734659,0.00202307923874163
"844","Lactate","Uridine",0.25107263449832,0.0246762978706154,0.0434544466209937
"845","Leu","Uridine",-0.0604208182298338,0.594447861558203,0.667871350396746
"846","Lipids","Uridine",-0.257254552634175,0.0212417879991746,0.0382756789470842
"847","Lys","Uridine",0.198689431641096,0.0772577188176244,0.117501289391435
"848","Met","Uridine",0.120382363623747,0.287482599485239,0.366520942200858
"849","PC1","Uridine",0.420632780841505,0.000102373948313028,0.000306473908557356
"850","PC2","Uridine",0.32625131892169,0.00314273737005122,0.00723364854517872
"851","PC3","Uridine",0.32625131892169,0.00314273737005122,0.00723364854517872
"852","Phe","Uridine",0.415097768239443,0.000128888462741283,0.000377487571991499
"853","Scyllo.inositol","Uridine",0.465349088042475,1.36561088721621e-05,4.64700683203788e-05
"854","Succinate","Uridine",0.272643616221646,0.01441448676308,0.0275476858138862
"855","Thr","Uridine",0.316544306268797,0.00475021509702955,0.0103780680872747
"856","Tyr","Uridine",0.393624316512316,0.000303542961564984,0.000837176797785642
"857","U.1.14","Uridine",0.184736931717239,0.100904323502751,0.148684563915269
"858","U.1.17","Uridine",0.0356416493280453,0.753618952403847,0.803298574549302
"859","U.7.61","Uridine",0.623677189756393,1.3702567969176e-09,9.46177321083249e-09
"860","UFAs","Uridine",0.025689715042325,0.822187174052017,0.860706159010799
"861","Uracil","Uridine",0.648128241628622,1.41035405576417e-10,1.15016804892492e-09
"862","Acetate","Uridine.1",0.0447633084481622,0.691509752434078,0.753650029726541
"863","Adenine","Uridine.1",0.547579252953945,1.22118221757006e-07,6.08933728674041e-07
"864","Ala","Uridine.1",0.117361056239917,0.296742926605664,0.37529252482481
"865","Arg_and_Lys","Uridine.1",0.0930949584921767,0.408447214381044,0.486638620660538
"866","Ascorbate","Uridine.1",0.527353212646113,7.02525333462489e-07,2.94065913918369e-06
"867","Asn","Uridine.1",0.27873749848753,0.0117421515043987,0.0231901363740317
"868","Asp","Uridine.1",0.182660598225551,0.102646394850591,0.150561000101154
"869","B_hydroxybutyrate","Uridine.1",-0.00305511633179639,0.978404909555308,0.980477801312841
"870","Creatine","Uridine.1",0.422254221448421,8.61813810315581e-05,0.000261306366845686
"871","Ethanolamine","Uridine.1",0.309058776459323,0.00499468504483547,0.0108870323788349
"872","Formate","Uridine.1",0.355071322544876,0.00153118090116511,0.00375258324482433
"873","Gln","Uridine.1",0.281772137184675,0.0108220070550855,0.021644014110171
"874","Glu","Uridine.1",0.262287305574481,0.0180072172651689,0.0332062914870365
"875","glucose","Uridine.1",0.358315067611916,0.00110040941326561,0.00277596614653139
"876","Glucose","Uridine.1",0.492266688383822,3.04560454100766e-06,1.14331027610843e-05
"877","Glutathione","Uridine.1",0.40352954433659,0.000205939974253111,0.000584333557819146
"878","Glycerol","Uridine.1",0.118562813759822,0.29178958219299,0.37151136575312
"879","Glycogen","Uridine.1",0.407920045553921,0.000190282855331292,0.00054547751861637
"880","Ile","Uridine.1",-0.00659533020778073,0.953401337286387,0.957993000838078
"881","Inosine","Uridine.1",0.692221073314439,1.59960933387993e-12,1.73934532166714e-11
"882","Inosine.1","Uridine.1",0.53526558838129,2.62752703372726e-07,1.21250759702731e-06
"883","Inosine.2","Uridine.1",0.477450467758514,6.5768583541459e-06,2.34781434076303e-05
"884","Inositol","Uridine.1",0.398701263108718,0.00022722578422929,0.000641658483226593
"885","Lactate","Uridine.1",0.33319592053399,0.00236960307209033,0.00556239331562644
"886","Leu","Uridine.1",0.00723909337946601,0.948858734154745,0.954915279266371
"887","Lipids","Uridine.1",-0.267218549000863,0.0158819837715132,0.0298079483465599
"888","Lys","Uridine.1",0.268613732340378,0.015321449657689,0.0289975886681082
"889","Met","Uridine.1",0.172792312177877,0.12293080408093,0.175403530408085
"890","PC1","Uridine.1",0.52834216157047,3.98944142609992e-07,1.75535422748396e-06
"891","PC2","Uridine.1",0.345370256137503,0.00158969173482459,0.00386593414175852
"892","PC3","Uridine.1",0.345370256137503,0.00158969173482459,0.00386593414175852
"893","Phe","Uridine.1",0.430151003489909,6.12543260565257e-05,0.000189988827703191
"894","Scyllo.inositol","Uridine.1",0.459506466107812,1.59462783679842e-05,5.34935437450819e-05
"895","Succinate","Uridine.1",0.260208374546756,0.0189738635493268,0.0347181333030236
"896","Thr","Uridine.1",0.326059832131643,0.00336263131371339,0.0076836937748137
"897","Tyr","Uridine.1",0.438141972772198,4.29846185951988e-05,0.000137376517537358
"898","U.1.14","Uridine.1",0.161111268397603,0.150755034578862,0.208500384081291
"899","U.1.17","Uridine.1",-0.0117680940184207,0.916954886197545,0.930728886633989
"900","U.7.61","Uridine.1",0.572535696695456,5.31525619074102e-08,2.92339090490756e-07
"901","UFAs","Uridine.1",-0.0194290270040298,0.864176900452978,0.890535237285966
"902","Uracil","Uridine.1",0.559436935426274,1.01380964512288e-07,5.21230393633827e-07
"903","Uridine","Uridine.1",0.945248757969899,0,0
"904","Acetate","Val",0.68355316807013,2.03659311637239e-12,2.16473830122278e-11
"905","Adenine","Val",0.0622886212849352,0.580659812289155,0.658638108423909
"906","Ala","Val",0.831493539898958,0,0
"907","Arg_and_Lys","Val",0.865565626581304,0,0
"908","Ascorbate","Val",-0.0622759261830275,0.588057996790322,0.663054666226036
"909","Asn","Val",0.659344759850692,2.18707274513008e-11,1.98939501624332e-10
"910","Asp","Val",0.249304085628094,0.0248048638217089,0.0434544466209937
"911","B_hydroxybutyrate","Val",0.0606786115058108,0.590497173937873,0.665012293506224
"912","Creatine","Val",0.232853585986143,0.0364422430777087,0.0605876308462433
"913","Ethanolamine","Val",0.579789516475078,1.412764705222e-08,8.40550573044034e-08
"914","Formate","Val",-0.0991140205674926,0.391107353245912,0.468932263841106
"915","Gln","Val",0.455446774422931,1.93518635618339e-05,6.42346067701576e-05
"916","Glu","Val",0.547134231431922,1.25614556978348e-07,6.18913390112071e-07
"917","glucose","Val",-0.263417607294487,0.0182327521794576,0.0335567773575232
"918","Glucose","Val",0.181002552299747,0.105858699649408,0.153828463699448
"919","Glutathione","Val",-0.130167493005648,0.249800569554691,0.327754977529456
"920","Glycerol","Val",0.102183351886063,0.364018099671652,0.4443369319863
"921","Glycogen","Val",-0.253059783929873,0.0244391596879341,0.0431332930313165
"922","Ile","Val",0.966275577282431,0,0
"923","Inosine","Val",-0.206794556947495,0.0674665771424092,0.104800298812347
"924","Inosine.1","Val",-0.215022922830236,0.0538872785903182,0.0852464306796672
"925","Inosine.2","Val",-0.223401612502541,0.044986760655592,0.0728723896921063
"926","Inositol","Val",0.053468991386327,0.635442318689129,0.706378887755483
"927","Lactate","Val",0.296252379977982,0.00724434312656541,0.015061865049958
"928","Leu","Val",0.948258437177394,0,0
"929","Lipids","Val",-0.200465253044584,0.0727481276393507,0.111901997962318
"930","Lys","Val",0.702965490817735,2.55795384873636e-13,3.61167812075313e-12
"931","Met","Val",0.693965468612512,6.83009204749396e-13,8.61502276923905e-12
"932","PC1","Val",0.335239946019835,0.0022184429550407,0.00524661758867126
"933","PC2","Val",-0.0371518426445679,0.741941570744353,0.795778600821041
"934","PC3","Val",-0.0371518426445679,0.741941570744353,0.795778600821041
"935","Phe","Val",0.762821927974792,0,0
"936","Scyllo.inositol","Val",0.105964191275508,0.34644403757483,0.425631246163362
"937","Succinate","Val",0.285462615656298,0.00978822022876447,0.0198705071596807
"938","Thr","Val",0.36130265184611,0.00107016624482625,0.00271687375758517
"939","Tyr","Val",0.790133704534871,0,0
"940","U.1.14","Val",-0.110517638584579,0.32599548012532,0.406313207112717
"941","U.1.17","Val",0.0109990627257418,0.922364367580046,0.934214873373366
"942","U.7.61","Val",-0.159659281365797,0.165440414744056,0.2255138794638
"943","UFAs","Val",-0.438058568782173,4.82751753874133e-05,0.000152736842530077
"944","Uracil","Val",0.246998122092355,0.0292494172504159,0.0499457558102769
"945","Uridine","Val",0.0169846154199114,0.881131604923794,0.901135673792334
"946","Uridine.1","Val",0.0907571475505298,0.420367646649927,0.499582655440742
