"","taxon","log.max.pct","direction","lda","p.value","adjusted"
"1","Bacteria.Firmicutes.Clostridia.Clostridiales.Ruminococcaceae",5.19473292788,0,4.60426201148,"0.00635545627711",0.319714586663605
"2","Bacteria.Proteobacteria.Gammaproteobacteria.Enterobacteriales",5.24844776962,1,4.72837231726,"0.0345005966996",0.434700534241106
"3","Bacteria.Proteobacteria.Gammaproteobacteria.Pasteurellales.Pasteurellaceae.Actinobacillus",3.14099361658,1,3.23644008256,"0.0193487213831",0.319714586663605
"4","Bacteria.Firmicutes.Erysipelotrichia.Erysipelotrichales.Erysipelotrichaceae.Turicibacter",4.28116602255,1,3.98838017183,"0.0193487213831",0.319714586663605
"5","Bacteria.Firmicutes.Clostridia.Clostridiales.Lachnospiraceae.Lachnospiraceae_ND3007_group",3.09043731171,0,2.65481338493,"0.0129281927414",0.319714586663605
"6","Bacteria.Bacteroidetes.Bacteroidia.Bacteroidales.Rikenellaceae",3.47799001479,0,3.10126157964,"0.0131944292733",0.319714586663605
"7","Bacteria.Firmicutes.Clostridia.Clostridiales.Christensenellaceae",3.90931230798,0,3.7326180502,"0.0450986145034",0.434700534241106
"8","Bacteria.Proteobacteria.Gammaproteobacteria.Enterobacteriales.Enterobacteriaceae.Raoultella",3.03805264105,1,3.50437940183,"0.0442666508349",0.434700534241106
"9","Bacteria.Proteobacteria",5.34053437007,1,4.77606962448,"0.0371619090518",0.434700534241106
"10","Bacteria.Firmicutes.Clostridia.Clostridiales.Lachnospiraceae.Roseburia",4.57922711869,0,4.09168945684,"0.000192041846883",0.066638520868401
"11","Bacteria.Proteobacteria.Alphaproteobacteria",2.71269339297,1,3.86759832797,"0.00368170368415",0.319387794600012
"12","Bacteria.Firmicutes.Clostridia.Clostridiales.Family_XIII.Mogibacterium",2.26014437944,1,3.08589967626,"0.0193487213831",0.319714586663605
"13","Bacteria.Bacteroidetes.Bacteroidia.Bacteroidales.Barnesiellaceae",4.00664342062,0,3.481717467,"0.00321453763346",0.319387794600012
"14","Bacteria.Firmicutes.Clostridia.Clostridiales.Ruminococcaceae.Ruminococcaceae_UCG_014",3.74507946945,0,3.48064864334,"0.0335817109615",0.434700534241106
"15","Bacteria.Proteobacteria.Gammaproteobacteria.Betaproteobacteriales.Burkholderiaceae.Sutterella",4.32873551395,0,3.62438403961,"0.0163140580295",0.319714586663605
"16","Bacteria.Proteobacteria.Gammaproteobacteria",5.33951000345,1,4.77455999105,"0.0381657694588",0.434700534241106
"17","Bacteria.Proteobacteria.Gammaproteobacteria.Enterobacteriales.Enterobacteriaceae",5.24844776962,1,4.7283723151,"0.0345005966996",0.434700534241106
"18","Bacteria.Proteobacteria.Alphaproteobacteria.Sphingomonadales.Sphingomonadaceae",2.67828499703,1,3.81590082775,"0.0084663467577",0.319714586663605
"19","Bacteria.Firmicutes.Clostridia.Clostridiales.Ruminococcaceae.Faecalibacterium",5.001002143,0,4.41108283795,"0.0126144987516",0.319714586663605
"20","Bacteria.Firmicutes.Clostridia.Clostridiales.Ruminococcaceae.Ruminococcaceae_UCG_005",3.46942432302,0,2.99862536632,"0.0418297462596",0.434700534241106
"21","Bacteria.Firmicutes.Clostridia.Clostridiales.Ruminococcaceae.Ruminococcaceae_UCG_002",3.85844773958,0,3.51274357721,"0.0145138555629",0.319714586663605
"22","Bacteria.Bacteroidetes.Bacteroidia.Bacteroidales.Marinifilaceae",3.54152242708,0,3.14640483153,"0.00749801980617",0.319714586663605
"23","Bacteria.Bacteroidetes.Bacteroidia.Bacteroidales.Barnesiellaceae.Coprobacter",3.38960069702,0,3.13618356959,"0.00952613290229",0.319714586663605
"24","Bacteria.Proteobacteria.Alphaproteobacteria.Sphingomonadales",2.67828499703,1,4.00208520089,"0.0084663467577",0.319714586663605
"25","Bacteria.Firmicutes.Clostridia.Clostridiales.Ruminococcaceae.Ruminiclostridium_6",3.10475268362,0,2.7668041752,"0.0379338763682",0.434700534241106
"26","Bacteria.Firmicutes.Clostridia.Clostridiales.Ruminococcaceae.Ruminiclostridium_5",3.76331047702,0,3.24165631139,"0.0246172177078",0.371398893243765
"27","Bacteria.Firmicutes.Clostridia.Clostridiales",5.59786164141,0,4.78833385519,"0.041315241047",0.434700534241106
"28","Bacteria.Firmicutes.Clostridia.Clostridiales.Christensenellaceae.Christensenellaceae_R_7_group",3.90796948741,0,3.73365198904,"0.0450986145034",0.434700534241106
"29","Bacteria.Firmicutes.Clostridia.Clostridiales.Lachnospiraceae.Lachnospiraceae_NK4A136_group",3.95953452962,0,3.52514000718,"0.0226593252781",0.357399357795486
"30","Bacteria.Bacteroidetes.Bacteroidia.Bacteroidales.Barnesiellaceae.Barnesiella",3.88658622431,0,3.29285319247,"0.0161503586037",0.319714586663605
"31","Bacteria.Bacteroidetes.Bacteroidia.Bacteroidales.Marinifilaceae.Odoribacter",3.49356216887,0,3.09681018565,"0.00582989803209",0.319714586663605
"32","Bacteria.Firmicutes.Clostridia.Clostridiales.Lachnospiraceae.Lachnospiraceae_UCG_001",2.98428362823,0,2.78856595262,"0.0192314004514",0.319714586663605
"33","Bacteria.Bacteroidetes.Bacteroidia.Bacteroidales.Rikenellaceae.Alistipes",3.46929772429,0,3.14689693968,"0.0131944292733",0.319714586663605
"34","Bacteria.Firmicutes.Clostridia",5.59790403562,0,4.78847975069,"0.041315241047",0.434700534241106
"35","Bacteria.Proteobacteria.Gammaproteobacteria.Betaproteobacteriales.Burkholderiaceae.Burkholderia_Caballeronia_Paraburkholderia",2.13701454262,1,3.08224573926,"0.0442666508349",0.434700534241106
"36","Bacteria.Firmicutes.Clostridia.Clostridiales.Lachnospiraceae.Marvinbryantia",2.9059106829,0,2.70801219873,"0.00330609719398",0.319387794600012
