"","taxon","log.max.pct","direction","lda","p.value","adjusted"
"1","Bacteria.Proteobacteria.Gammaproteobacteria.Enterobacteriales",5.34025749266,"Y",5.06649591205,"0.0229666912601",0.442746770403039
"2","Bacteria.Firmicutes.Negativicutes.Selenomonadales.Veillonellaceae.Veillonella",4.62169077684,"Y",4.34495460438,"0.0463509052851",0.670156838913737
"3","Bacteria.Firmicutes.Clostridia.Clostridiales.Ruminococcaceae.Pseudoflavonifractor",3.05826187935,"N",3.80764754983,"0.0100331340062",0.290124791679283
"4","Bacteria.Proteobacteria.Gammaproteobacteria.Enterobacteriales.Enterobacteriaceae",5.34025749266,"Y",5.06649590966,"0.0229666912601",0.442746770403039
