"","Genus",".y.","n","statistic","df","p","method","p.adj"
"1","Barnesiella","Abundance",74,20.6343517273918,2,3.31e-05,"Kruskal-Wallis",0.0072158
"2","Alistipes","Abundance",74,16.7242449135544,2,0.000234,"Kruskal-Wallis",0.025506
"3","Lachnospiraceae_NK4A136_group","Abundance",74,13.7698933125163,2,0.00102,"Kruskal-Wallis",0.06649
"4","Ruminococcus_1","Abundance",74,13.4158951916064,2,0.00122,"Kruskal-Wallis",0.06649
"5","Odoribacter","Abundance",74,11.4923324204333,2,0.0032,"Kruskal-Wallis",0.125713333333333
"6","Coprobacter","Abundance",74,11.3317338690347,2,0.00346,"Kruskal-Wallis",0.125713333333333
"7","Christensenellaceae_R-7_group","Abundance",74,10.8441517361662,2,0.00442,"Kruskal-Wallis",0.137651428571429
"8","Ruminiclostridium_6","Abundance",74,10.0831564438318,2,0.00646,"Kruskal-Wallis",0.157202222222222
"9","Lachnospiraceae_ND3007_group","Abundance",74,10.0750826473278,2,0.00649,"Kruskal-Wallis",0.157202222222222
"10","Tyzzerella","Abundance",74,9.5683242711165,2,0.00836,"Kruskal-Wallis",0.182248
"11","Faecalibacterium","Abundance",74,8.56005253719282,2,0.0138,"Kruskal-Wallis",0.2725
"12","Ralstonia","Abundance",74,8.39910746386706,2,0.015,"Kruskal-Wallis",0.2725
"13","Rothia","Abundance",74,8.14838352235694,2,0.017,"Kruskal-Wallis",0.2725
"14","Anaerostipes","Abundance",74,8.09294621999742,2,0.0175,"Kruskal-Wallis",0.2725
"15","Coprococcus_1","Abundance",74,7.82591299250515,2,0.02,"Kruskal-Wallis",0.273711111111111
"16","Ruminococcaceae_UCG-005","Abundance",74,7.8016078666867,2,0.0202,"Kruskal-Wallis",0.273711111111111
"17","Enterococcus","Abundance",74,7.60533106479514,2,0.0223,"Kruskal-Wallis",0.273711111111111
"18","Blautia","Abundance",74,7.58159660519174,2,0.0226,"Kruskal-Wallis",0.273711111111111
"19","Intestinibacter","Abundance",74,7.29582879010285,2,0.026,"Kruskal-Wallis",0.282409090909091
"20","Subdoligranulum","Abundance",74,7.16228618527904,2,0.0278,"Kruskal-Wallis",0.282409090909091
"21","Marvinbryantia","Abundance",74,7.15400765359614,2,0.028,"Kruskal-Wallis",0.282409090909091
"22","Coprococcus_3","Abundance",74,7.11293323506149,2,0.0285,"Kruskal-Wallis",0.282409090909091
"23","Ruminiclostridium_5","Abundance",74,6.82522879316729,2,0.033,"Kruskal-Wallis",0.312782608695652
"24","Ruminococcus_2","Abundance",74,6.60576389931445,2,0.0368,"Kruskal-Wallis",0.313764285714286
"25","Ruminococcaceae_UCG-003","Abundance",74,6.54844244087283,2,0.0378,"Kruskal-Wallis",0.313764285714286
"26","Ruminococcaceae_UCG-013","Abundance",74,6.53371994231212,2,0.0381,"Kruskal-Wallis",0.313764285714286
"27","Oxalobacter","Abundance",74,6.42279644895371,2,0.0403,"Kruskal-Wallis",0.313764285714286
"28","Ruminococcaceae_UCG-010","Abundance",74,6.42279644895371,2,0.0403,"Kruskal-Wallis",0.313764285714286
"29","Dielma","Abundance",74,6.25908339076495,2,0.0437,"Kruskal-Wallis",0.328503448275862
"30","Klebsiella","Abundance",74,5.4417068567834,2,0.0658,"Kruskal-Wallis",0.478146666666667
"31","Sellimonas","Abundance",74,5.33344664095157,2,0.0695,"Kruskal-Wallis",0.4809625
"32","Parabacteroides","Abundance",74,5.30266524856216,2,0.0706,"Kruskal-Wallis",0.4809625
"33","Actinobacillus","Abundance",74,5.08800144648004,2,0.0786,"Kruskal-Wallis",0.519236363636364
"34","Prevotella_9","Abundance",74,4.98216910733324,2,0.0828,"Kruskal-Wallis",0.530894117647059
"35","Lachnospiraceae_UCG-001","Abundance",74,4.89618403578674,2,0.0865,"Kruskal-Wallis",0.538771428571429
"36","Fournierella","Abundance",74,4.52177290551399,2,0.104,"Kruskal-Wallis",0.549541666666667
"37","Lactobacillus","Abundance",74,4.51840978593267,2,0.104,"Kruskal-Wallis",0.549541666666667
"38","Roseburia","Abundance",74,4.41591757905108,2,0.11,"Kruskal-Wallis",0.549541666666667
"39","Streptococcus","Abundance",74,4.4204547125143,2,0.11,"Kruskal-Wallis",0.549541666666667
"40","GCA-900066575","Abundance",74,4.28707950565069,2,0.117,"Kruskal-Wallis",0.549541666666667
"41","Cutibacterium","Abundance",74,4.27820803601765,2,0.118,"Kruskal-Wallis",0.549541666666667
"42","Lachnospiraceae_UCG-004","Abundance",74,4.27354494738861,2,0.118,"Kruskal-Wallis",0.549541666666667
"43","Ruminococcaceae_UCG-004","Abundance",74,4.23812543073731,2,0.12,"Kruskal-Wallis",0.549541666666667
"44","Butyrivibrio","Abundance",74,4.22374429223756,2,0.121,"Kruskal-Wallis",0.549541666666667
"45","Family_XIII_UCG-001","Abundance",74,4.22374429223756,2,0.121,"Kruskal-Wallis",0.549541666666667
"46","Lachnospiraceae_FCS020_group","Abundance",74,4.22374429223756,2,0.121,"Kruskal-Wallis",0.549541666666667
"47","Lachnospiraceae_UCG-008","Abundance",74,4.22374429223756,2,0.121,"Kruskal-Wallis",0.549541666666667
"48","UC5-1-2E3","Abundance",74,4.22374429223756,2,0.121,"Kruskal-Wallis",0.549541666666667
"49","Acidovorax","Abundance",74,4.0395513814693,2,0.133,"Kruskal-Wallis",0.581333333333333
"50","Akkermansia","Abundance",74,4.00146718657056,2,0.135,"Kruskal-Wallis",0.581333333333333
"51","Ruminococcaceae_UCG-002","Abundance",74,3.92270694636353,2,0.141,"Kruskal-Wallis",0.581333333333333
"52","Acinetobacter","Abundance",74,3.87144191820209,2,0.144,"Kruskal-Wallis",0.581333333333333
"53","Parasutterella","Abundance",74,3.85993493805605,2,0.145,"Kruskal-Wallis",0.581333333333333
"54","Staphylococcus","Abundance",74,3.76847868596006,2,0.152,"Kruskal-Wallis",0.581333333333333
"55","Butyricimonas","Abundance",74,3.7249620951067,2,0.155,"Kruskal-Wallis",0.581333333333333
"56","Collinsella","Abundance",74,3.55391179936031,2,0.169,"Kruskal-Wallis",0.581333333333333
"57","Agathobacter","Abundance",74,3.25736112633279,2,0.196,"Kruskal-Wallis",0.581333333333333
"58","Haemophilus","Abundance",74,3.19510591838219,2,0.202,"Kruskal-Wallis",0.581333333333333
"59","Negativibacillus","Abundance",74,3.14177577420623,2,0.208,"Kruskal-Wallis",0.581333333333333
"60","Merdibacter","Abundance",74,3.12460367786942,2,0.21,"Kruskal-Wallis",0.581333333333333
"61","Escherichia/Shigella","Abundance",74,3.03510349236794,2,0.219,"Kruskal-Wallis",0.581333333333333
"62","Granulicatella","Abundance",74,2.99521179975297,2,0.224,"Kruskal-Wallis",0.581333333333333
"63","Anaerotruncus","Abundance",74,2.97351598173483,2,0.226,"Kruskal-Wallis",0.581333333333333
"64","Atopobium","Abundance",74,2.97351598173483,2,0.226,"Kruskal-Wallis",0.581333333333333
"65","Catenibacterium","Abundance",74,2.97351598173483,2,0.226,"Kruskal-Wallis",0.581333333333333
"66","Lawsonella","Abundance",74,2.97351598173483,2,0.226,"Kruskal-Wallis",0.581333333333333
"67","Sulfurovum","Abundance",74,2.97351598173483,2,0.226,"Kruskal-Wallis",0.581333333333333
"68","Yokenella","Abundance",74,2.97351598173483,2,0.226,"Kruskal-Wallis",0.581333333333333
"69","Oribacterium","Abundance",74,2.92462904248554,2,0.232,"Kruskal-Wallis",0.581333333333333
"70","Diaphorobacter","Abundance",74,2.90503721954296,2,0.234,"Kruskal-Wallis",0.581333333333333
"71","Phascolarctobacterium","Abundance",74,2.87164136584925,2,0.238,"Kruskal-Wallis",0.581333333333333
"72","Pseudocitrobacter","Abundance",74,2.83173958993851,2,0.243,"Kruskal-Wallis",0.581333333333333
"73","Veillonella","Abundance",74,2.76978065619843,2,0.25,"Kruskal-Wallis",0.581333333333333
"74","Oscillospira","Abundance",74,2.7585650206875,2,0.252,"Kruskal-Wallis",0.581333333333333
"75","Flavonifractor","Abundance",74,2.73287874313487,2,0.255,"Kruskal-Wallis",0.581333333333333
"76","Abiotrophia","Abundance",74,2.69999999999939,2,0.259,"Kruskal-Wallis",0.581333333333333
"77","Agrococcus","Abundance",74,2.69999999999939,2,0.259,"Kruskal-Wallis",0.581333333333333
"78","Anaerococcus","Abundance",74,2.69999999999939,2,0.259,"Kruskal-Wallis",0.581333333333333
"79","Anaerosporobacter","Abundance",74,2.69999999999939,2,0.259,"Kruskal-Wallis",0.581333333333333
"80","Anoxybacillus","Abundance",74,2.69999999999939,2,0.259,"Kruskal-Wallis",0.581333333333333
"81","Blastocatella","Abundance",74,2.69999999999939,2,0.259,"Kruskal-Wallis",0.581333333333333
"82","Coprobacillus","Abundance",74,2.69999999999939,2,0.259,"Kruskal-Wallis",0.581333333333333
"83","Desulfovibrio","Abundance",74,2.69999999999939,2,0.259,"Kruskal-Wallis",0.581333333333333
"84","Eggerthia","Abundance",74,2.69999999999939,2,0.259,"Kruskal-Wallis",0.581333333333333
"85","Faecalicoccus","Abundance",74,2.69999999999939,2,0.259,"Kruskal-Wallis",0.581333333333333
"86","Hafnia-Obesumbacterium","Abundance",74,2.69999999999939,2,0.259,"Kruskal-Wallis",0.581333333333333
"87","Helicobacter","Abundance",74,2.69999999999939,2,0.259,"Kruskal-Wallis",0.581333333333333
"88","Megamonas","Abundance",74,2.69999999999939,2,0.259,"Kruskal-Wallis",0.581333333333333
"89","Microbacterium","Abundance",74,2.69999999999939,2,0.259,"Kruskal-Wallis",0.581333333333333
"90","Proteus","Abundance",74,2.69999999999939,2,0.259,"Kruskal-Wallis",0.581333333333333
"91","Pseudogracilibacillus","Abundance",74,2.69999999999939,2,0.259,"Kruskal-Wallis",0.581333333333333
"92","Rhodococcus","Abundance",74,2.69999999999939,2,0.259,"Kruskal-Wallis",0.581333333333333
"93","Rickettsiella","Abundance",74,2.69999999999939,2,0.259,"Kruskal-Wallis",0.581333333333333
"94","Porphyromonas","Abundance",74,2.60492205078745,2,0.272,"Kruskal-Wallis",0.581333333333333
"95","Ruminococcaceae_NK4A214_group","Abundance",74,2.57328893123365,2,0.276,"Kruskal-Wallis",0.581333333333333
"96","Turicibacter","Abundance",74,2.55282947605276,2,0.279,"Kruskal-Wallis",0.581333333333333
"97","Ruminococcaceae_UCG-014","Abundance",74,2.48731214496294,2,0.288,"Kruskal-Wallis",0.581333333333333
"98","Butyricicoccus","Abundance",74,2.47849800114218,2,0.29,"Kruskal-Wallis",0.581333333333333
"99","Morganella","Abundance",74,2.44861499517823,2,0.294,"Kruskal-Wallis",0.581333333333333
"100","Flavobacterium","Abundance",74,2.38784032465449,2,0.303,"Kruskal-Wallis",0.581333333333333
"101","Mogibacterium","Abundance",74,2.38784032465449,2,0.303,"Kruskal-Wallis",0.581333333333333
"102","Sutterella","Abundance",74,2.33816550086979,2,0.311,"Kruskal-Wallis",0.581333333333333
"103","Megasphaera","Abundance",74,2.25734490517517,2,0.323,"Kruskal-Wallis",0.581333333333333
"104","Erysipelotrichaceae_UCG-003","Abundance",74,2.16063446573504,2,0.339,"Kruskal-Wallis",0.581333333333333
"105","Acetitomaculum","Abundance",74,2.08333333333357,2,0.353,"Kruskal-Wallis",0.581333333333333
"106","Anaeroplasma","Abundance",74,2.08333333333357,2,0.353,"Kruskal-Wallis",0.581333333333333
"107","CAG-56","Abundance",74,2.08333333333357,2,0.353,"Kruskal-Wallis",0.581333333333333
"108","Catabacter","Abundance",74,2.08333333333357,2,0.353,"Kruskal-Wallis",0.581333333333333
"109","Clostridium_sensu_stricto_2","Abundance",74,2.08333333333357,2,0.353,"Kruskal-Wallis",0.581333333333333
"110","Defluviitaleaceae_UCG-011","Abundance",74,2.08333333333357,2,0.353,"Kruskal-Wallis",0.581333333333333
"111","Eubacterium","Abundance",74,2.08333333333357,2,0.353,"Kruskal-Wallis",0.581333333333333
"112","Gallicola","Abundance",74,2.08333333333357,2,0.353,"Kruskal-Wallis",0.581333333333333
"113","Lachnospiraceae_NK4B4_group","Abundance",74,2.08333333333357,2,0.353,"Kruskal-Wallis",0.581333333333333
"114","Lachnospiraceae_UCG-003","Abundance",74,2.08333333333357,2,0.353,"Kruskal-Wallis",0.581333333333333
"115","Leptotrichia","Abundance",74,2.08333333333357,2,0.353,"Kruskal-Wallis",0.581333333333333
"116","Leuconostoc","Abundance",74,2.08333333333357,2,0.353,"Kruskal-Wallis",0.581333333333333
"117","Peptococcus","Abundance",74,2.08333333333357,2,0.353,"Kruskal-Wallis",0.581333333333333
"118","Phocea","Abundance",74,2.08333333333357,2,0.353,"Kruskal-Wallis",0.581333333333333
"119","Ramlibacter","Abundance",74,2.08333333333357,2,0.353,"Kruskal-Wallis",0.581333333333333
"120","Rikenellaceae_RC9_gut_group","Abundance",74,2.08333333333357,2,0.353,"Kruskal-Wallis",0.581333333333333
"121","Variovorax","Abundance",74,2.08333333333357,2,0.353,"Kruskal-Wallis",0.581333333333333
"122","Victivallis","Abundance",74,2.08333333333357,2,0.353,"Kruskal-Wallis",0.581333333333333
"123","Coprococcus_2","Abundance",74,1.9867850348761,2,0.37,"Kruskal-Wallis",0.581333333333333
"124","Family_XIII_AD3011_group","Abundance",74,1.9867850348761,2,0.37,"Kruskal-Wallis",0.581333333333333
"125","GCA-900066755","Abundance",74,1.97788032850984,2,0.372,"Kruskal-Wallis",0.581333333333333
"126","Actinomyces","Abundance",74,1.967504626264,2,0.374,"Kruskal-Wallis",0.581333333333333
"127","Bacteroides","Abundance",74,1.95392280493535,2,0.376,"Kruskal-Wallis",0.581333333333333
"128","Tyzzerella_4","Abundance",74,1.92139980090356,2,0.383,"Kruskal-Wallis",0.581333333333333
"129","UBA1819","Abundance",74,1.89747955546227,2,0.387,"Kruskal-Wallis",0.581333333333333
"130","Corynebacterium_1","Abundance",74,1.8875782058909,2,0.389,"Kruskal-Wallis",0.581333333333333
"131","Oscillibacter","Abundance",74,1.85351779662634,2,0.396,"Kruskal-Wallis",0.581333333333333
"132","Fusicatenibacter","Abundance",74,1.76081794722478,2,0.415,"Kruskal-Wallis",0.581333333333333
"133","Lachnoclostridium","Abundance",74,1.75868130804954,2,0.415,"Kruskal-Wallis",0.581333333333333
"134","Gemella","Abundance",74,1.73326941046546,2,0.42,"Kruskal-Wallis",0.581333333333333
"135","Lachnospira","Abundance",74,1.73548065855978,2,0.42,"Kruskal-Wallis",0.581333333333333
"136","Comamonas","Abundance",74,1.64612665821045,2,0.439,"Kruskal-Wallis",0.581333333333333
"137","Holdemanella","Abundance",74,1.63328993892649,2,0.442,"Kruskal-Wallis",0.581333333333333
"138","Alloprevotella","Abundance",74,1.61486981677911,2,0.446,"Kruskal-Wallis",0.581333333333333
"139","Burkholderia-Caballeronia-Paraburkholderia","Abundance",74,1.5886873811036,2,0.452,"Kruskal-Wallis",0.581333333333333
"140","Allisonella","Abundance",74,1.56430775734526,2,0.457,"Kruskal-Wallis",0.581333333333333
"141","Azomonas","Abundance",74,1.56430775734526,2,0.457,"Kruskal-Wallis",0.581333333333333
"142","Arcobacter","Abundance",74,1.56176977425487,2,0.458,"Kruskal-Wallis",0.581333333333333
"143","Raoultella","Abundance",74,1.54301416191074,2,0.462,"Kruskal-Wallis",0.581333333333333
"144","Achromobacter","Abundance",74,1.46666666666704,2,0.48,"Kruskal-Wallis",0.581333333333333
"145","Alishewanella","Abundance",74,1.46666666666704,2,0.48,"Kruskal-Wallis",0.581333333333333
"146","Anaerofustis","Abundance",74,1.46666666666704,2,0.48,"Kruskal-Wallis",0.581333333333333
"147","Bacillus","Abundance",74,1.46666666666704,2,0.48,"Kruskal-Wallis",0.581333333333333
"148","Brevibacterium","Abundance",74,1.46666666666704,2,0.48,"Kruskal-Wallis",0.581333333333333
"149","Candidatus_Soleaferrea","Abundance",74,1.46666666666704,2,0.48,"Kruskal-Wallis",0.581333333333333
"150","Cellulosilyticum","Abundance",74,1.46666666666704,2,0.48,"Kruskal-Wallis",0.581333333333333
"151","Cloacibacillus","Abundance",74,1.46666666666704,2,0.48,"Kruskal-Wallis",0.581333333333333
"152","Cytophaga","Abundance",74,1.46666666666704,2,0.48,"Kruskal-Wallis",0.581333333333333
"153","Dechlorosoma","Abundance",74,1.46666666666704,2,0.48,"Kruskal-Wallis",0.581333333333333
"154","DTU089","Abundance",74,1.46666666666704,2,0.48,"Kruskal-Wallis",0.581333333333333
"155","Enterobacillus","Abundance",74,1.46666666666704,2,0.48,"Kruskal-Wallis",0.581333333333333
"156","Fastidiosipila","Abundance",74,1.46666666666704,2,0.48,"Kruskal-Wallis",0.581333333333333
"157","Janthinobacterium","Abundance",74,1.46666666666704,2,0.48,"Kruskal-Wallis",0.581333333333333
"158","Lactococcus","Abundance",74,1.46666666666704,2,0.48,"Kruskal-Wallis",0.581333333333333
"159","Lautropia","Abundance",74,1.46666666666704,2,0.48,"Kruskal-Wallis",0.581333333333333
"160","Legionella","Abundance",74,1.46666666666704,2,0.48,"Kruskal-Wallis",0.581333333333333
"161","Mitsuokella","Abundance",74,1.46666666666704,2,0.48,"Kruskal-Wallis",0.581333333333333
"162","Mobilitalea","Abundance",74,1.46666666666704,2,0.48,"Kruskal-Wallis",0.581333333333333
"163","Moraxella","Abundance",74,1.46666666666704,2,0.48,"Kruskal-Wallis",0.581333333333333
"164","Novosphingobium","Abundance",74,1.46666666666704,2,0.48,"Kruskal-Wallis",0.581333333333333
"165","Pediococcus","Abundance",74,1.46666666666704,2,0.48,"Kruskal-Wallis",0.581333333333333
"166","Peptoniphilus","Abundance",74,1.46666666666704,2,0.48,"Kruskal-Wallis",0.581333333333333
"167","Prevotella_2","Abundance",74,1.46666666666704,2,0.48,"Kruskal-Wallis",0.581333333333333
"168","Prevotella_7","Abundance",74,1.46666666666704,2,0.48,"Kruskal-Wallis",0.581333333333333
"169","Prevotellaceae_NK3B31_group","Abundance",74,1.46666666666704,2,0.48,"Kruskal-Wallis",0.581333333333333
"170","Pyramidobacter","Abundance",74,1.46666666666704,2,0.48,"Kruskal-Wallis",0.581333333333333
"171","Rhodopseudomonas","Abundance",74,1.46666666666704,2,0.48,"Kruskal-Wallis",0.581333333333333
"172","Roseateles","Abundance",74,1.46666666666704,2,0.48,"Kruskal-Wallis",0.581333333333333
"173","Ruminococcaceae_UCG-009","Abundance",74,1.46666666666704,2,0.48,"Kruskal-Wallis",0.581333333333333
"174","Selenomonas","Abundance",74,1.46666666666704,2,0.48,"Kruskal-Wallis",0.581333333333333
"175","Sphingobium","Abundance",74,1.46666666666704,2,0.48,"Kruskal-Wallis",0.581333333333333
"176","Sphingopyxis","Abundance",74,1.46666666666704,2,0.48,"Kruskal-Wallis",0.581333333333333
"177","Syntrophaceticus","Abundance",74,1.46666666666704,2,0.48,"Kruskal-Wallis",0.581333333333333
"178","Tetrasphaera","Abundance",74,1.46666666666704,2,0.48,"Kruskal-Wallis",0.581333333333333
"179","Yonghaparkia","Abundance",74,1.46666666666704,2,0.48,"Kruskal-Wallis",0.581333333333333
"180","Zoogloea","Abundance",74,1.46666666666704,2,0.48,"Kruskal-Wallis",0.581333333333333
"181","Romboutsia","Abundance",74,1.42229225871832,2,0.491,"Kruskal-Wallis",0.589318681318681
"182","Lachnospiraceae_UCG-010","Abundance",74,1.41980593607293,2,0.492,"Kruskal-Wallis",0.589318681318681
"183","Tyzzerella_3","Abundance",74,1.4029109589045,2,0.496,"Kruskal-Wallis",0.590863387978142
"184","Pelomonas","Abundance",74,1.20871785599503,2,0.546,"Kruskal-Wallis",0.646891304347826
"185","Erysipelatoclostridium","Abundance",74,1.14557368258558,2,0.564,"Kruskal-Wallis",0.649458333333333
"186","Aggregatibacter","Abundance",74,1.11563926940609,2,0.572,"Kruskal-Wallis",0.649458333333333
"187","Candidatus_Stoquefichus","Abundance",74,1.11563926940609,2,0.572,"Kruskal-Wallis",0.649458333333333
"188","Lachnoanaerobaculum","Abundance",74,1.11563926940609,2,0.572,"Kruskal-Wallis",0.649458333333333
"189","Massilia","Abundance",74,1.11563926940609,2,0.572,"Kruskal-Wallis",0.649458333333333
"190","Mycobacterium","Abundance",74,1.11563926940609,2,0.572,"Kruskal-Wallis",0.649458333333333
"191","Sphingomonas","Abundance",74,1.11563926940609,2,0.572,"Kruskal-Wallis",0.649458333333333
"192","Terrisporobacter","Abundance",74,1.11563926940609,2,0.572,"Kruskal-Wallis",0.649458333333333
"193","Clostridioides","Abundance",74,1.08184931506887,2,0.582,"Kruskal-Wallis",0.654
"194","Prevotella","Abundance",74,1.08184931506887,2,0.582,"Kruskal-Wallis",0.654
"195","Acidaminococcus","Abundance",74,0.988554770520963,2,0.61,"Kruskal-Wallis",0.681948717948718
"196","Hungatella","Abundance",74,0.927613111991885,2,0.629,"Kruskal-Wallis",0.699602040816327
"197","Citrobacter","Abundance",74,0.875790640073059,2,0.645,"Kruskal-Wallis",0.713756345177665
"198","Clostridium_sensu_stricto_1","Abundance",74,0.840792234752841,2,0.657,"Kruskal-Wallis",0.720824120603015
"199","Neisseria","Abundance",74,0.837558929790875,2,0.658,"Kruskal-Wallis",0.720824120603015
"200","Paraclostridium","Abundance",74,0.794577625570465,2,0.672,"Kruskal-Wallis",0.728098522167488
"201","Solobacterium","Abundance",74,0.795530708460779,2,0.672,"Kruskal-Wallis",0.728098522167488
"202","Cloacibacterium","Abundance",74,0.777682648401674,2,0.678,"Kruskal-Wallis",0.728098522167488
"203","Herminiimonas","Abundance",74,0.777682648401674,2,0.678,"Kruskal-Wallis",0.728098522167488
"204","Fusobacterium","Abundance",74,0.744799487365788,2,0.689,"Kruskal-Wallis",0.732692682926829
"205","Pseudomonas","Abundance",74,0.745282572927172,2,0.689,"Kruskal-Wallis",0.732692682926829
"206","Ruminiclostridium_9","Abundance",74,0.724629715715427,2,0.696,"Kruskal-Wallis",0.736543689320388
"207","Paraprevotella","Abundance",74,0.454776682742605,2,0.797,"Kruskal-Wallis",0.839352657004831
"208","Holdemania","Abundance",74,0.413564513365297,2,0.813,"Kruskal-Wallis",0.852086538461538
"209","Faecalitalea","Abundance",74,0.381075751131067,2,0.827,"Kruskal-Wallis",0.862612440191387
"210","Parvimonas","Abundance",74,0.34692408521134,2,0.841,"Kruskal-Wallis",0.873038095238095
"211","Intestinimonas","Abundance",74,0.325454915956238,2,0.85,"Kruskal-Wallis",0.878199052132701
"212","Dorea","Abundance",74,0.313923107359563,2,0.855,"Kruskal-Wallis",0.879198113207547
"213","Finegoldia","Abundance",74,0.133839199614493,2,0.935,"Kruskal-Wallis",0.956948356807512
"214","Pseudoflavonifractor","Abundance",74,0.098752906362412,2,0.952,"Kruskal-Wallis",0.965283720930233
"215","Stenotrophomonas","Abundance",74,0.098752906362412,2,0.952,"Kruskal-Wallis",0.965283720930233
"216","Dialister","Abundance",74,0.0807925859263573,2,0.96,"Kruskal-Wallis",0.968888888888889
"217","Peptostreptococcus","Abundance",74,0.0643436905516982,2,0.968,"Kruskal-Wallis",0.972
"218","Eisenbergiella","Abundance",74,0.0563190599458391,2,0.972,"Kruskal-Wallis",0.972
