"","var2",".y.","group1","group2","n1","n2","statistic","p","p.adj","p.adj.signif"
"1","Alistipes","Abundance","CD","non-IBD","30","24"," 3.30729031","9.420321e-04","1.884064e-03","**"
"2","Alistipes","Abundance","CD","UC","30","20","-0.78667963","4.314694e-01","4.314694e-01","ns"
"3","Alistipes","Abundance","non-IBD","UC","24","20","-3.74162624","1.828333e-04","5.484999e-04","***"
"4","Barnesiella","Abundance","CD","non-IBD","30","24"," 4.25190209","2.119625e-05","6.358876e-05","****"
"5","Barnesiella","Abundance","CD","UC","30","20"," 0.34316037","7.314778e-01","7.314778e-01","ns"
"6","Barnesiella","Abundance","non-IBD","UC","24","20","-3.51879957","4.335041e-04","8.670081e-04","***"
"7","Christensenellaceae_R-7_group","Abundance","CD","non-IBD","30","24"," 2.76407230","5.708489e-03","1.141698e-02","*"
"8","Christensenellaceae_R-7_group","Abundance","CD","UC","30","20","-0.45766248","6.471949e-01","6.471949e-01","ns"
"9","Christensenellaceae_R-7_group","Abundance","non-IBD","UC","24","20","-2.93656152","3.318730e-03","9.956190e-03","**"
"10","Coprobacter","Abundance","CD","non-IBD","30","24"," 2.92883148","3.402388e-03","1.020716e-02","*"
"11","Coprobacter","Abundance","CD","UC","30","20","-0.26980115","7.873132e-01","7.873132e-01","ns"
"12","Coprobacter","Abundance","non-IBD","UC","24","20","-2.90647305","3.655284e-03","1.020716e-02","*"
"13","Lachnospiraceae_ND3007_group","Abundance","CD","non-IBD","30","24"," 2.63988759","8.293353e-03","1.658671e-02","*"
"14","Lachnospiraceae_ND3007_group","Abundance","CD","UC","30","20","-0.48501353","6.276668e-01","6.276668e-01","ns"
"15","Lachnospiraceae_ND3007_group","Abundance","non-IBD","UC","24","20","-2.85031042","4.367658e-03","1.310297e-02","*"
"16","Lachnospiraceae_NK4A136_group","Abundance","CD","non-IBD","30","24"," 2.65235479","7.993250e-03","1.598650e-02","*"
"17","Lachnospiraceae_NK4A136_group","Abundance","CD","UC","30","20","-1.23487759","2.168761e-01","2.168761e-01","ns"
"18","Lachnospiraceae_NK4A136_group","Abundance","non-IBD","UC","24","20","-3.57655476","3.481524e-04","1.044457e-03","**"
"19","Odoribacter","Abundance","CD","non-IBD","30","24"," 2.24493205","2.477250e-02","4.954499e-02","*"
"20","Odoribacter","Abundance","CD","UC","30","20","-1.35681660","1.748395e-01","1.748395e-01","ns"
"21","Odoribacter","Abundance","non-IBD","UC","24","20","-3.32429131","8.864355e-04","2.659306e-03","**"
"22","Ruminiclostridium_6","Abundance","CD","non-IBD","30","24"," 2.93084287","3.380437e-03","1.014131e-02","*"
"23","Ruminiclostridium_6","Abundance","CD","UC","30","20"," 0.12767334","8.984075e-01","8.984075e-01","ns"
"24","Ruminiclostridium_6","Abundance","non-IBD","UC","24","20","-2.52931537","1.142853e-02","2.285706e-02","*"
"25","Ruminococcus_1","Abundance","CD","non-IBD","30","24"," 3.22126697","1.276252e-03","3.828756e-03","**"
"26","Ruminococcus_1","Abundance","CD","UC","30","20","-0.22261976","8.238315e-01","8.238315e-01","ns"
"27","Ruminococcus_1","Abundance","non-IBD","UC","24","20","-3.12600522","1.771984e-03","3.828756e-03","**"
"28","Tyzzerella","Abundance","CD","non-IBD","30","24"," 2.77017783","5.602570e-03","1.680771e-02","*"
"29","Tyzzerella","Abundance","CD","UC","30","20","-0.08004893","9.361983e-01","9.361983e-01","ns"
"30","Tyzzerella","Abundance","non-IBD","UC","24","20","-2.58204378","9.821712e-03","1.964342e-02","*"
